<?xml version="1.0"?>
<!DOCTYPE svg PUBLIC "-//W3C//DTD SVG 1.1//EN" "http://www.w3.org/Graphics/SVG/1.1/DTD/svg11.dtd">
<svg xmlns="http://www.w3.org/2000/svg" xmlns:xl="http://www.w3.org/1999/xlink" version="1.1" viewBox="112 84 306 386" width="306pt" height="386pt"><metadata xmlns:dc="http://purl.org/dc/elements/1.1/"><dc:date>2014-05-02 10:09Z</dc:date><!-- Produced by OmniGraffle Professional 5.4.4 --></metadata><defs><font-face font-family="Code2000" font-size="288" panose-1="2 0 6 0 0 0 0 0 0 0" units-per-em="1000" underline-position="-100.097656" underline-thickness="69.697495" slope="0" x-height="444.82422" cap-height="683.59375" ascent="976.5625" descent="-292.96875" font-weight="500"><font-face-src><font-face-name name="Code2000"/></font-face-src></font-face></defs><g stroke="none" stroke-opacity="1" stroke-dasharray="none" fill="none" fill-opacity="1"><title>Canevas 1</title><rect fill="white" width="559" height="783"/><g><title>Calque 1</title><text transform="translate(121 94)" fill="black"><tspan font-family="Code2000" font-size="288" font-weight="500" x="0" y="281" textLength="288">青</tspan></text></g></g></svg>
