<?xml version="1.0" encoding="iso-8859-1"?>
<!-- Generator: Adobe Illustrator 13.0.0, SVG Export Plug-In . SVG Version: 6.00 Build 14948)  -->
<svg version="1.2" baseProfile="tiny" id="Calque_1"
	 xmlns="http://www.w3.org/2000/svg" xmlns:xlink="http://www.w3.org/1999/xlink" x="0px" y="0px" width="29.762px"
	 height="29.762px" viewBox="0 0 29.762 29.762" xml:space="preserve">
<g id="Flood">
	<g>
		<path d="M0,14.878L14.881,0l14.526,14.525l-0.353,0.355l0.353-0.355l0.354,0.353L14.881,29.762L0,14.878L0,14.878z M1.416,14.878
			l13.465,13.468l13.466-13.467L14.881,1.413L1.416,14.878L1.416,14.878z"/>
		<polygon fill-rule="evenodd" fill="#FFFFFF" points="14.881,28.35 1.414,14.88 14.881,1.413 28.349,14.88 14.881,28.35 		"/>
	</g>
	<path d="M15.935,24.9c-0.414-0.477-0.69-0.959-0.692-0.959l-0.395-0.681l-0.395,0.681c0,0.002-0.28,0.482-0.692,0.959
		c-0.401,0.492-0.978,0.895-1.261,0.866c-0.068,0.007-0.155-0.015-0.25-0.052l0.72,0.72c0.862-0.263,1.501-1.014,1.878-1.557
		c0.384,0.554,1.038,1.327,1.927,1.575l0.817-0.817c-0.153,0.083-0.296,0.141-0.396,0.131C16.911,25.795,16.335,25.393,15.935,24.9z
		 M10.151,23.261l-0.13,0.225l0.644,0.644c-0.069-0.107-0.118-0.188-0.119-0.188L10.151,23.261z M19.148,23.941
		c0,0.002-0.1,0.168-0.256,0.394l0.806-0.806l-0.155-0.269L19.148,23.941z M25.374,16.43c-0.413-0.477-0.689-0.96-0.693-0.96
		l-0.395-0.682l-0.393,0.682c0,0.002-0.278,0.483-0.692,0.96c-0.403,0.49-0.978,0.894-1.261,0.863
		c-0.116,0.012-0.286-0.061-0.468-0.17l-0.049-5.046l-3.274-3.237h-0.61V7.513h-1.303v1.327h-4.726l-2.921,3.14v4.955l0.015-0.011
		c-0.289,0.231-0.576,0.389-0.753,0.37c-0.281,0.03-0.859-0.373-1.261-0.863c-0.412-0.477-0.69-0.96-0.692-0.96l-0.396-0.682
		L5.109,15.47c0,0.002-0.277,0.483-0.692,0.96c-0.23,0.281-0.514,0.521-0.771,0.68l0.569,0.569c0.565-0.347,1.005-0.864,1.288-1.272
		c0.442,0.637,1.243,1.57,2.348,1.65c1.106-0.08,1.905-1.014,2.349-1.65c0.442,0.637,1.242,1.57,2.348,1.65
		c1.107-0.08,1.906-1.014,2.348-1.65c0.442,0.637,1.243,1.57,2.348,1.65c1.107-0.08,1.908-1.014,2.348-1.65
		c0.443,0.637,1.243,1.57,2.35,1.65c1.106-0.08,1.906-1.014,2.347-1.65c0.281,0.404,0.712,0.916,1.27,1.264l0.57-0.57
		C25.875,16.941,25.599,16.704,25.374,16.43z M11.784,16.913c-0.174-0.141-0.349-0.301-0.498-0.483
		c-0.412-0.477-0.688-0.96-0.692-0.96l-0.329-0.566v-1.707h1.52V16.913z M18.207,14.793h-2.709v-1.864h2.709V14.793z M14.642,11.995
		l-2.643-2.608h4.237v0.828l0.529,0.529h0.773V9.387h0.385l2.643,2.608H14.642z M21.89,18.85l-0.393,0.682
		c0,0.002-0.278,0.483-0.692,0.96c-0.403,0.488-0.978,0.892-1.262,0.864c-0.282,0.027-0.859-0.376-1.261-0.864
		c-0.413-0.477-0.69-0.96-0.695-0.96l-0.392-0.682l-0.395,0.682c0,0.002-0.278,0.483-0.692,0.96
		c-0.401,0.488-0.979,0.892-1.261,0.864c-0.284,0.027-0.858-0.376-1.263-0.864c-0.414-0.477-0.688-0.96-0.692-0.96l-0.395-0.682
		l-0.392,0.682c0,0.002-0.278,0.483-0.692,0.96c-0.404,0.488-0.979,0.892-1.263,0.864c-0.282,0.027-0.859-0.376-1.261-0.864
		c-0.413-0.477-0.69-0.96-0.692-0.96L7.804,18.85l-0.395,0.682c0,0.002-0.223,0.375-0.554,0.788l0.6,0.6
		c0.132-0.156,0.251-0.31,0.349-0.45c0.442,0.637,1.242,1.57,2.348,1.65c1.107-0.081,1.906-1.014,2.349-1.65
		c0.442,0.637,1.24,1.569,2.348,1.65c1.105-0.081,1.905-1.014,2.348-1.65c0.442,0.637,1.243,1.569,2.348,1.65
		c1.107-0.081,1.906-1.014,2.348-1.65c0.105,0.15,0.236,0.317,0.382,0.486l0.597-0.598c-0.35-0.428-0.582-0.826-0.584-0.826
		L21.89,18.85z"/>
</g>
</svg>
