<?xml version="1.0"?>
<!DOCTYPE svg PUBLIC "-//W3C//DTD SVG 1.1//EN" "http://www.w3.org/Graphics/SVG/1.1/DTD/svg11.dtd">
<svg xmlns="http://www.w3.org/2000/svg" xmlns:xl="http://www.w3.org/1999/xlink" version="1.1" viewBox="0 7 290 143" width="290pt" height="143pt"><metadata xmlns:dc="http://purl.org/dc/elements/1.1/"><dc:date>2014-11-07 09:55Z</dc:date><!-- Produced by OmniGraffle Professional 5.4.4 --></metadata><defs><font-face font-family="Helvetica" font-size="32" units-per-em="1000" underline-position="-75.683594" underline-thickness="49.316406" slope="0" x-height="532.22656" cap-height="719.72656" ascent="770.01953" descent="-229.98047" font-weight="bold"><font-face-src><font-face-name name="Helvetica-Bold"/></font-face-src></font-face></defs><g stroke="none" stroke-opacity="1" stroke-dasharray="none" fill="none" fill-opacity="1"><title>Canevas 1</title><rect fill="white" width="559" height="783"/><g><title>Calque 1</title><rect x="9" y="53" width="124" height="54" fill="green"/><text transform="translate(14 61)" fill="white"><tspan font-family="Helvetica" font-size="32" font-weight="bold" fill="white" x="32.125" y="31" textLength="49.75">ZW</tspan></text><ellipse cx="211" cy="78.5" rx="66.000107" ry="57.50009" fill="white"/><ellipse cx="211" cy="78.5" rx="66.000107" ry="57.50009" stroke="#1e7e03" stroke-linecap="round" stroke-linejoin="round" stroke-width="5"/><rect x="201.43478" y="38.96875" width="19.130435" height="80.859375" fill="black"/><rect x="201.43478" y="38.96875" width="19.130435" height="80.859375" stroke="black" stroke-linecap="round" stroke-linejoin="round" stroke-width="1"/><path d="M 244.99486 52.127624 L 253.28262 67.40108 L 177.60413 108.466126 L 169.31637 93.19267 Z" fill="black"/><path d="M 244.99486 52.127624 L 253.28262 67.40108 L 177.60413 108.466126 L 169.31637 93.19267 Z" stroke="black" stroke-linecap="round" stroke-linejoin="round" stroke-width="1"/><path d="M 168.71736 68.4372 L 176.71453 52.96716 L 253.2399 92.526586 L 245.24274 107.996626 Z" fill="black"/><path d="M 168.71736 68.4372 L 176.71453 52.96716 L 253.2399 92.526586 L 245.24274 107.996626 Z" stroke="black" stroke-linecap="round" stroke-linejoin="round" stroke-width="1"/></g></g></svg>
