<?xml version="1.0"?>
<!DOCTYPE svg PUBLIC "-//W3C//DTD SVG 1.1//EN" "http://www.w3.org/Graphics/SVG/1.1/DTD/svg11.dtd">
<svg xmlns="http://www.w3.org/2000/svg" xmlns:xl="http://www.w3.org/1999/xlink" version="1.1" viewBox="14 12 288 134" width="24pc" height="134pt"><metadata xmlns:dc="http://purl.org/dc/elements/1.1/"><dc:date>2014-10-15 12:33Z</dc:date><!-- Produced by OmniGraffle Professional 5.4.4 --></metadata><defs><font-face font-family="Helvetica" font-size="49" units-per-em="1000" underline-position="-75.683594" underline-thickness="49.316406" slope="0" x-height="522.94922" cap-height="717.28516" ascent="770.01953" descent="-229.98047" font-weight="500"><font-face-src><font-face-name name="Helvetica"/></font-face-src></font-face></defs><g stroke="none" stroke-opacity="1" stroke-dasharray="none" fill="none" fill-opacity="1"><title>Canevas 1</title><g><title>Calque 1</title><rect x="28" y="57" width="260" height="75" fill="white"/><rect x="28" y="57" width="260" height="75" stroke="#6f6" stroke-linecap="round" stroke-linejoin="miter" stroke-width="7"/><text transform="translate(33 65)" fill="#6f6"><tspan font-family="Helvetica" font-size="49" font-weight="500" fill="#6f6" x="5.6103516" y="48" textLength="98.04785">VSA</tspan><tspan font-family="Helvetica" font-size="49" font-weight="500" fill="#6f6" x="100.04541" y="48" textLength="144.34424">V XXX</tspan></text><rect x="155" y="21" width="6" height="36" fill="#6f6"/></g></g></svg>
