<?xml version="1.0"?>
<!DOCTYPE svg PUBLIC "-//W3C//DTD SVG 1.1//EN" "http://www.w3.org/Graphics/SVG/1.1/DTD/svg11.dtd">
<svg xmlns="http://www.w3.org/2000/svg" xmlns:xl="http://www.w3.org/1999/xlink" version="1.1" viewBox="9 33 319 103" width="319pt" height="103pt"><metadata xmlns:dc="http://purl.org/dc/elements/1.1/"><dc:date>2014-10-15 10:52Z</dc:date><!-- Produced by OmniGraffle Professional 5.4.4 --></metadata><defs><font-face font-family="Helvetica" font-size="49" units-per-em="1000" underline-position="-75.683594" underline-thickness="49.316406" slope="0" x-height="522.94922" cap-height="717.28516" ascent="770.01953" descent="-229.98047" font-weight="500"><font-face-src><font-face-name name="Helvetica"/></font-face-src></font-face></defs><g stroke="none" stroke-opacity="1" stroke-dasharray="none" fill="none" fill-opacity="1"><title>Canevas 1</title><g><title>Calque 1</title><rect x="23" y="47" width="291" height="75" fill="white"/><rect x="23" y="47" width="291" height="75" stroke="purple" stroke-linecap="round" stroke-linejoin="miter" stroke-width="7"/><text transform="translate(28 55)" fill="purple"><tspan font-family="Helvetica" font-size="49" font-weight="500" fill="purple" x="8.908203" y="48" textLength="65.317383">CT</tspan><tspan font-family="Helvetica" font-size="49" font-weight="500" fill="purple" x="70.612793" y="48" textLength="201.479">A/CODIS</tspan></text></g></g></svg>
