<?xml version="1.0" encoding="UTF-8"?>
<svg xmlns="http://www.w3.org/2000/svg" xmlns:xlink="http://www.w3.org/1999/xlink" width="900" height="600" viewBox="0 0 30 20">
<rect width="30" height="20" fill="#ed2939"/>
<g transform="translate(15,10)">
<g id="t">
<g id="s">
<g id="r" stroke-width="0.5" stroke-linecap="round">
<path d="M0,1v2" stroke="#ffd203"/>
<path d="M0,5v2" stroke="#fff"/>
</g>
<use xlink:href="#r" transform="rotate(120,0,4)"/>
<use xlink:href="#r" transform="rotate(240,0,4)"/>
</g>
<use xlink:href="#s" transform="rotate(180)"/>
</g>
<use xlink:href="#t" transform="rotate(60)"/>
<use xlink:href="#t" transform="rotate(120)"/>
</g>
</svg>