<?xml version="1.0"?>
<!DOCTYPE svg PUBLIC "-//W3C//DTD SVG 1.1//EN" "http://www.w3.org/Graphics/SVG/1.1/DTD/svg11.dtd">
<svg xmlns="http://www.w3.org/2000/svg" xmlns:xl="http://www.w3.org/1999/xlink" version="1.1" viewBox="0 0 1118 783" width="1118pt" height="783pt"><metadata xmlns:dc="http://purl.org/dc/elements/1.1/"><dc:date>2014-11-10 15:57Z</dc:date><!-- Produced by OmniGraffle Professional 5.4.4 --></metadata><defs></defs><g stroke="none" stroke-opacity="1" stroke-dasharray="none" fill="none" fill-opacity="1"><title>Canevas 1</title><g><title>Calque 1</title><path d="M 716.27327 22.020052 L 839.27327 145.02006 L 834.2623 150.03105 L 711.26227 27.031045 Z" fill="red"/><path d="M 684.27326 50.305578 L 807.27327 173.30558 L 802.26227 178.31657 L 679.26227 55.31657 Z" fill="red"/><path d="M 655.98774 84.77129 L 778.98774 207.7713 L 773.97675 212.78229 L 650.97675 89.782284 Z" fill="red"/><path d="M 639.26227 136.30558 L 762.26227 13.3055776 L 767.27327 18.31657 L 644.27326 141.31657 Z" fill="red"/><path d="M 677.26226 173.30558 L 800.26227 50.305572 L 805.27326 55.316565 L 682.27326 178.31657 Z" fill="red"/><path d="M 716.99513 211.03843 L 839.99514 88.038427 L 845.00613 93.04942 L 722.00613 216.04942 Z" fill="red"/><path d="M 216.94717 115.21374 C 225.49594 111.1429 233.43664 103.610626 242.59603 103 C 251.75542 102.389374 266.41337 105.44336 271.909 111.54962 C 277.40464 117.65588 274.35188 130.27829 275.57313 139.64122" stroke="red" stroke-linecap="round" stroke-linejoin="round" stroke-width="6"/><path d="M 275.57313 140.862595 C 276.3873 149.81844 273.33441 161.21948 278.01588 167.73282 C 282.69734 174.24617 294.50534 179.33594 303.66473 179.94656 C 312.82412 180.55719 327.48208 177.50321 332.9777 171.39695 C 338.47334 165.29069 335.42058 152.668275 336.64183 143.30534" stroke="red" stroke-linecap="round" stroke-linejoin="round" stroke-width="6"/><path d="M 336.64183 145.137405 C 337.456 136.18156 334.40311 124.78052 339.08458 118.267176 C 343.76605 111.75383 355.57405 106.66406 364.73344 106.053435 C 373.89282 105.44281 388.55078 108.496794 394.04641 114.603053 C 399.54205 120.70931 396.48928 133.331725 397.71054 142.69466" stroke="red" stroke-linecap="round" stroke-linejoin="round" stroke-width="6"/><path d="M 397.71054 143.91603 C 398.5247 152.87188 395.47182 164.27292 400.15328 170.78626 C 404.83475 177.2996 416.64275 182.38937 425.80214 183 C 434.96153 183.61063 449.61948 180.55664 455.11512 174.45038 C 460.61075 168.34412 457.558 155.72171 458.77924 146.35878" stroke="red" stroke-linecap="round" stroke-linejoin="round" stroke-width="6"/><path d="M 458.77924 145.137405 C 459.5934 136.18156 456.54052 124.78052 461.222 118.267176 C 465.90345 111.75383 477.71145 106.66406 486.87084 106.053435 C 496.03023 105.44281 510.6882 108.496794 516.18382 114.603053 C 521.67945 120.70931 518.6267 133.331725 519.84794 142.69466" stroke="red" stroke-linecap="round" stroke-linejoin="round" stroke-width="6"/><path d="M 519.84794 143.91603 C 520.6621 152.87188 517.60923 164.27292 522.2907 170.78626 C 526.97216 177.2996 538.78016 182.38937 547.93955 183 C 557.09894 183.61063 571.7569 180.55664 577.25252 174.45038 C 582.74816 168.34412 579.6954 155.72171 580.91665 146.35878" stroke="red" stroke-linecap="round" stroke-linejoin="round" stroke-width="6"/><path d="M 580.91665 145.137405 C 581.7308 136.18156 578.67793 124.78052 583.3594 118.267176 C 588.04086 111.75383 599.84886 106.66406 609.00825 106.053435 C 618.16764 105.44281 628.5512 111.753466 638.32123 114.603053" stroke="red" stroke-linecap="round" stroke-linejoin="round" stroke-width="6"/><path d="M 87.273265 22.020052 L 210.27327 145.020055 L 205.26228 150.03105 L 82.26227 27.031045 Z" fill="red"/><path d="M 55.27326 50.305577 L 178.27326 173.30558 L 173.26227 178.31657 L 50.262268 55.31657 Z" fill="red"/><path d="M 26.987737 84.77129 L 149.98774 207.7713 L 144.97675 212.78229 L 21.976745 89.782284 Z" fill="red"/><path d="M 10.2622684 136.30558 L 133.26227 13.305577 L 138.273265 18.31657 L 15.273261 141.31657 Z" fill="red"/><path d="M 48.262262 173.30557 L 171.26227 50.305572 L 176.27326 55.316564 L 53.273255 178.31657 Z" fill="red"/><path d="M 87.99513 211.03843 L 210.99513 88.038426 L 216.00613 93.04942 L 93.006124 216.04942 Z" fill="red"/></g></g></svg>
