<?xml version="1.0"?>
<!DOCTYPE svg PUBLIC "-//W3C//DTD SVG 1.1//EN" "http://www.w3.org/Graphics/SVG/1.1/DTD/svg11.dtd">
<svg xmlns="http://www.w3.org/2000/svg" xmlns:xl="http://www.w3.org/1999/xlink" version="1.1" viewBox="1 15 238 134" width="238pt" height="134pt"><metadata xmlns:dc="http://purl.org/dc/elements/1.1/"><dc:date>2014-11-06 14:52Z</dc:date><!-- Produced by OmniGraffle Professional 5.4.4 --></metadata><defs><font-face font-family="Helvetica" font-size="37" units-per-em="1000" underline-position="-75.683594" underline-thickness="49.316406" slope="0" x-height="532.22656" cap-height="719.72656" ascent="770.01953" descent="-229.98047" font-weight="bold"><font-face-src><font-face-name name="Helvetica-Bold"/></font-face-src></font-face></defs><g stroke="none" stroke-opacity="1" stroke-dasharray="none" fill="none" fill-opacity="1"><title>Canevas 1</title><rect fill="white" width="559" height="783"/><g><title>Calque 1</title><rect x="14.5" y="28.5" width="211" height="107" fill="white"/><rect x="14.5" y="28.5" width="211" height="107" stroke="black" stroke-linecap="round" stroke-linejoin="round" stroke-width="5"/><text transform="translate(66.5 60)" fill="black"><tspan font-family="Helvetica" font-size="37" font-weight="bold" x=".05053711" y="35" textLength="106.898926">Brand</tspan></text></g></g></svg>
