<?xml version="1.0"?>
<!DOCTYPE svg PUBLIC "-//W3C//DTD SVG 1.1//EN" "http://www.w3.org/Graphics/SVG/1.1/DTD/svg11.dtd">
<svg xmlns="http://www.w3.org/2000/svg" xmlns:xl="http://www.w3.org/1999/xlink" version="1.1" viewBox="2 11 563 195" width="563pt" height="195pt"><metadata xmlns:dc="http://purl.org/dc/elements/1.1/"><dc:date>2014-11-06 15:50Z</dc:date><!-- Produced by OmniGraffle Professional 5.4.4 --></metadata><defs><font-face font-family="Helvetica" font-size="40" units-per-em="1000" underline-position="-75.683594" underline-thickness="49.316406" slope="0" x-height="532.22656" cap-height="719.72656" ascent="770.01953" descent="-229.98047" font-weight="bold"><font-face-src><font-face-name name="Helvetica-Bold"/></font-face-src></font-face><font-face font-family="Helvetica" font-size="35" units-per-em="1000" underline-position="-75.683594" underline-thickness="49.316406" slope="0" x-height="532.22656" cap-height="719.72656" ascent="770.01953" descent="-229.98047" font-weight="bold"><font-face-src><font-face-name name="Helvetica-Bold"/></font-face-src></font-face></defs><g stroke="none" stroke-opacity="1" stroke-dasharray="none" fill="none" fill-opacity="1"><title>Canevas 1</title><rect fill="white" width="559" height="783"/><g><title>Calque 1</title><rect x="15" y="89" width="54" height="99" fill="white"/><rect x="15" y="89" width="54" height="99" stroke="blue" stroke-linecap="round" stroke-linejoin="round" stroke-width="5"/><rect x="69" y="117" width="254" height="33" fill="white"/><rect x="69" y="117" width="254" height="33" stroke="blue" stroke-linecap="round" stroke-linejoin="round" stroke-width="5"/><rect x="132" y="107" width="4" height="56" fill="blue"/><rect x="132" y="107" width="4" height="56" stroke="blue" stroke-linecap="round" stroke-linejoin="round" stroke-width="3"/><rect x="226" y="105.5" width="4" height="56" fill="blue"/><rect x="226" y="105.5" width="4" height="56" stroke="blue" stroke-linecap="round" stroke-linejoin="round" stroke-width="3"/><text transform="translate(169.5 60)" fill="blue"><tspan font-family="Helvetica" font-size="40" font-weight="bold" fill="blue" x=".37695312" y="39" textLength="22.246094">3</tspan></text><rect x="398" y="75" width="118" height="117" fill="white"/><rect x="398" y="75" width="118" height="117" stroke="blue" stroke-linecap="round" stroke-linejoin="round" stroke-width="5"/><ellipse cx="457" cy="133.5" rx="15.500025" ry="16.500027" fill="blue"/><rect x="363" y="72" width="189" height="5" fill="blue"/><rect x="363" y="72" width="189" height="5" stroke="blue" stroke-linecap="round" stroke-linejoin="round" stroke-width="3"/><rect x="363.5" y="188" width="189" height="5" fill="blue"/><rect x="363.5" y="188" width="189" height="5" stroke="blue" stroke-linecap="round" stroke-linejoin="round" stroke-width="3"/><text transform="translate(437.5 20)" fill="blue"><tspan font-family="Helvetica" font-size="35" font-weight="bold" fill="blue" x=".034667969" y="34" textLength="38.930664">12</tspan></text></g></g></svg>
