<?xml version="1.0"?>
<!DOCTYPE svg PUBLIC "-//W3C//DTD SVG 1.1//EN" "http://www.w3.org/Graphics/SVG/1.1/DTD/svg11.dtd">
<svg xmlns="http://www.w3.org/2000/svg" xmlns:xl="http://www.w3.org/1999/xlink" version="1.1" viewBox="-2 3 274 110" width="274pt" height="110pt"><metadata xmlns:dc="http://purl.org/dc/elements/1.1/"><dc:date>2014-11-17 16:33Z</dc:date><!-- Produced by OmniGraffle Professional 5.4.4 --></metadata><defs><font-face font-family="Calibri" font-size="30" panose-1="2 15 7 2 3 4 4 3 2 4" units-per-em="1000" underline-position="-87.402344" underline-thickness="90.82031" slope="0" x-height="468.74997" cap-height="631.83594" ascent="952.1484" descent="-268.55469" font-weight="bold"><font-face-src><font-face-name name="Calibri-Bold"/></font-face-src></font-face></defs><g stroke="none" stroke-opacity="1" stroke-dasharray="none" fill="none" fill-opacity="1"><title>Canevas 1</title><rect fill="white" width="559" height="783"/><g><title>Calque 1</title><rect x="7" y="12" width="256" height="92" fill="white"/><text transform="translate(12 39.5)" fill="black"><tspan font-family="Calibri" font-size="30" font-weight="bold" x="29.755371" y="29" textLength="86.99707">Gasilsk</tspan><tspan font-family="Calibri" font-size="30" font-weight="bold" x="116.38623" y="29" textLength="99.8584">a služba</tspan></text></g></g></svg>
