<?xml version="1.0"?>
<!DOCTYPE svg PUBLIC "-//W3C//DTD SVG 1.1//EN" "http://www.w3.org/Graphics/SVG/1.1/DTD/svg11.dtd">
<svg xmlns="http://www.w3.org/2000/svg" xmlns:xl="http://www.w3.org/1999/xlink" version="1.1" viewBox="-4 -4 402 106" width="402pt" height="106pt"><metadata xmlns:dc="http://purl.org/dc/elements/1.1/"><dc:date>2014-11-17 16:03Z</dc:date><!-- Produced by OmniGraffle Professional 5.4.4 --></metadata><defs></defs><g stroke="none" stroke-opacity="1" stroke-dasharray="none" fill="none" fill-opacity="1"><title>Canevas 1</title><rect fill="white" width="559" height="783"/><g><title>Calque 1</title><rect x="66" y="47.748405" width="319" height="2" fill="black"/><rect x="66" y="47.748405" width="319" height="2" stroke="black" stroke-linecap="round" stroke-linejoin="miter" stroke-width="6"/><ellipse cx="38" cy="48.748405" rx="28.000044" ry="27.558905" fill="white"/><ellipse cx="38" cy="48.748405" rx="28.000044" ry="27.558905" stroke="black" stroke-linecap="round" stroke-linejoin="round" stroke-width="7"/><path d="M 57.045462 9.3790884 L 18 87.13626 L 19.954537 88.117723 L 59 10.3605514 Z" fill="white"/><path d="M 57.045462 9.3790884 L 18 87.13626 L 19.954537 88.117723 L 59 10.3605514 Z" stroke="black" stroke-linecap="round" stroke-linejoin="miter" stroke-width="6"/></g></g></svg>
