<?xml version="1.0"?>
<!DOCTYPE svg PUBLIC "-//W3C//DTD SVG 1.1//EN" "http://www.w3.org/Graphics/SVG/1.1/DTD/svg11.dtd">
<svg xmlns="http://www.w3.org/2000/svg" xmlns:xl="http://www.w3.org/1999/xlink" version="1.1" viewBox="-2 3 274 110" width="274pt" height="110pt"><metadata xmlns:dc="http://purl.org/dc/elements/1.1/"><dc:date>2014-11-17 16:25Z</dc:date><!-- Produced by OmniGraffle Professional 5.4.4 --></metadata><defs><font-face font-family="Calibri" font-size="30" panose-1="2 15 7 2 3 4 4 3 2 4" units-per-em="1000" underline-position="-87.402344" underline-thickness="90.82031" slope="0" x-height="468.74997" cap-height="631.83594" ascent="952.1484" descent="-268.55469" font-weight="bold"><font-face-src><font-face-name name="Calibri-Bold"/></font-face-src></font-face></defs><g stroke="none" stroke-opacity="1" stroke-dasharray="none" fill="none" fill-opacity="1"><title>Canevas 1</title><rect fill="white" width="559" height="783"/><g><title>Calque 1</title><rect x="7" y="12" width="256" height="92" fill="white"/><text transform="translate(12 21)" fill="black"><tspan font-family="Calibri" font-size="30" font-weight="bold" x="6.42041" y="29" textLength="29.780273">Gr</tspan><tspan font-family="Calibri" font-size="30" font-weight="bold" x="35.834473" y="29" textLength="16.12793">o</tspan><tspan font-family="Calibri" font-size="30" font-weight="bold" x="51.654785" y="29" textLength="94.58496">žnja/ne</tspan><tspan font-family="Calibri" font-size="30" font-weight="bold" x="146.09326" y="29" textLength="14.194336">v</tspan><tspan font-family="Calibri" font-size="30" font-weight="bold" x="159.84814" y="29" textLength="69.66797">arnos</tspan><tspan font-family="Calibri" font-size="30" font-weight="bold" x="229.1792" y="29" textLength="17.182617">t </tspan><tspan font-family="Calibri" font-size="30" font-weight="bold" x="65.77588" y="66" textLength="114.44824">(splošno)</tspan></text></g></g></svg>
