<?xml version="1.0" encoding="iso-8859-1"?>
<!-- Generator: Adobe Illustrator 13.0.0, SVG Export Plug-In . SVG Version: 6.00 Build 14948)  -->
<svg version="1.2" baseProfile="tiny" id="Calque_1"
	 xmlns="http://www.w3.org/2000/svg" xmlns:xlink="http://www.w3.org/1999/xlink" x="0px" y="0px" width="24.998px"
	 height="24.999px" viewBox="0 0 24.998 24.999" xml:space="preserve">
<g id="Electrecity_point">
	<g>
		<path d="M0,0v24.999h24.998V0H0z"/>
		<rect x="0.998" y="0.999" fill="#FFFFFF" width="23" height="23.002"/>
		<polygon points="2.223,5.804 2.78,7.196 12.5,3.309 22.222,7.196 22.779,5.804 12.498,1.691 		"/>
	</g>
	<path id="Symbol_14_" d="M14.158,7.246c-0.338-0.156-0.694-0.269-1.062-0.332c-0.856-0.131-1.759-0.012-2.53,0.394
		c-0.545,0.286-1.01,0.72-1.324,1.249C8.989,9.001,8.83,9.5,8.783,10.01c-0.001,0.179-0.004,0.358,0.001,0.537
		c0.051,0.485,0.196,0.956,0.397,1.399c0.009,0.022,0.028,0.065,0.038,0.087c0.083,0.185,0.181,0.36,0.275,0.537
		c0.103,0.194,0.221,0.382,0.328,0.573c0.356,0.578,0.68,1.188,0.838,1.853c0.057,0.224,0.058,0.456,0.139,0.675
		c0.061,0.18,0.239,0.313,0.432,0.307c0.792,0,1.583,0,2.372,0c0.162,0.004,0.312-0.086,0.401-0.217
		c0.011-0.021,0.032-0.063,0.043-0.084c0.074-0.252,0.082-0.517,0.158-0.768c0.159-0.635,0.477-1.213,0.818-1.767
		c0.474-0.803,0.944-1.653,1.03-2.599c0.05-0.592-0.064-1.189-0.317-1.725C15.421,8.127,14.84,7.574,14.158,7.246z M14.739,12.361
		c-0.335,0.616-0.734,1.203-0.968,1.87c-0.119,0.315-0.176,0.649-0.229,0.981c-0.746,0-1.493,0.01-2.239-0.006
		c-0.057-0.352-0.124-0.702-0.25-1.036c-0.263-0.693-0.685-1.308-1.028-1.962c-0.289-0.541-0.526-1.131-0.549-1.75
		C9.446,9.935,9.589,9.408,9.861,8.962c0.331-0.539,0.854-0.949,1.448-1.163c0.896-0.329,1.937-0.238,2.757,0.253
		c0.422,0.26,0.777,0.629,1.006,1.07c0.231,0.43,0.324,0.926,0.291,1.41C15.319,11.184,15.053,11.795,14.739,12.361z M13.023,10.855
		c0.09,0.091,0.306,0.16,0.547,0.16s0.524-0.322,0.524-0.791c-0.156,0-0.368,0-0.368,0s-0.113,0.352-0.31,0.352
		c-0.195,0-0.228-0.326-0.228-0.357c-0.104,0.002-0.214,0.004-0.321,0.006c-0.036,0.104-0.096,0.416-0.342,0.416
		s-0.283-0.4-0.283-0.4l-0.344-0.011c-0.048,0.175-0.13,0.406-0.354,0.388c-0.205-0.004-0.266-0.221-0.321-0.383
		c-0.115,0.001-0.234,0.003-0.355,0.009c-0.074,0.348,0.189,0.686,0.521,0.772c0.231,0.088,0.467-0.043,0.664-0.154
		c0.15,0.069,0.29,0.136,0.466,0.154C12.77,11.015,12.926,10.973,13.023,10.855z M11.326,11.49h-0.318l0.665,3.338l0.511,0.006
		L11.326,11.49z M12.574,14.833l0.578-0.002l0.669-3.347l-0.376-0.003L12.574,14.833z M10.81,18.429
		c0.016,0.203,0.218,0.354,0.414,0.35h2.392c0.215,0.004,0.432-0.178,0.42-0.4c0.012-0.615-0.005-1.23,0.009-1.843
		c-1.079,0.001-2.158,0.008-3.238-0.003C10.816,17.164,10.805,17.796,10.81,18.429z M12.025,19.662
		c0.394,0.199,0.943,0.057,1.125-0.361c-0.493-0.002-0.986,0.008-1.479-0.006C11.759,19.443,11.872,19.578,12.025,19.662z"/>
</g>
</svg>
