<?xml version="1.0" encoding="iso-8859-1"?>
<!-- Generator: Adobe Illustrator 13.0.0, SVG Export Plug-In . SVG Version: 6.00 Build 14948)  -->
<svg version="1.2" baseProfile="tiny" id="Calque_1"
	 xmlns="http://www.w3.org/2000/svg" xmlns:xlink="http://www.w3.org/1999/xlink" x="0px" y="0px" width="24.998px"
	 height="24.999px" viewBox="0 0 24.998 24.999" xml:space="preserve">
<g id="Municipality_authorities">
	<g id="XMLID_7_">
		<path d="M0,0v24.999h24.998V0H0z"/>
		<rect x="0.998" y="0.999" fill="#FFFFFF" width="23" height="23.002"/>
		<polygon points="2.223,5.804 2.78,7.196 12.5,3.309 22.222,7.196 22.779,5.804 12.498,1.691 		"/>
	</g>
	<path d="M9.594,18.7l4.103-8.404c0,0-1.894-0.001-3.596,0c-0.168,0-0.336-0.007-0.503,0.01c-0.652,0.061-1.285,0.356-1.739,0.829
		c-0.504,0.499-0.799,1.202-0.811,1.909c-0.001,2.269,0,4.533-0.001,6.801c-0.002,0.314,0.125,0.635,0.367,0.842
		c0.304,0.262,0.771,0.295,1.117,0.1C8.769,20.647,8.938,20.406,9,20.14c0.06-0.226,0.038-0.46,0.043-0.688
		c-0.021-0.865,0.005-1.732-0.017-2.6c0.002-0.916,0.003-1.832-0.008-2.748c0.002-0.141-0.022-0.311,0.1-0.41
		c0.158-0.148,0.456-0.025,0.45,0.197c0.003,0.967,0.015,1.933,0.01,2.899c0.016,0.655,0.006,1.313,0.009,1.964 M11.569,9.34
		c0.54,0.252,1.184,0.267,1.738,0.051c0.481-0.188,0.894-0.549,1.141-1.003c0.286-0.516,0.347-1.15,0.175-1.713
		c-0.141-0.466-0.438-0.88-0.834-1.161c-0.406-0.292-0.914-0.437-1.412-0.408c-0.446,0.025-0.883,0.185-1.235,0.461
		C10.692,5.91,10.386,6.43,10.306,6.99c-0.073,0.478,0.013,0.979,0.246,1.402C10.779,8.803,11.14,9.143,11.569,9.34z M17.464,11.514
		c-0.5-0.734-0.94-1.209-1.83-1.22L9.803,21.591l5.579,0.006v-7.708c0.013-0.146,0.154-0.271,0.303-0.258
		c0.128,0.012,0.224,0.134,0.229,0.258c0.01,0.211-0.001,0.426,0.005,0.637c0.017,0.424-0.005,0.846,0.013,1.27
		c0.003,1.348,0.02,2.698,0.025,4.049c0.007,0.299,0.114,0.609,0.34,0.814c0.312,0.297,0.827,0.332,1.186,0.102
		c0.224-0.141,0.375-0.377,0.434-0.631c0.05-0.201,0.04-0.411,0.042-0.617c-0.001-2.156,0-4.313,0-6.469
		C17.948,12.5,17.773,11.961,17.464,11.514z"/>
</g>
</svg>
