country,label-en,abbreviation,label-es,label-dk,label-nl,label-de,URL,
United Kingdom,Command Support System,,,,,,http://www.emergencycommandsystem.com/products/command-support-system/,
United Kingdom,AirWave Network,,,,,,https://www.airwavesolutions.co.uk/home/,
Germany,German emergency prevention information system,deNIS II plus,,,,deutsches Notfallvorsorge-Informationssystem,https://www.denis.bund.de/,
Germany,German Joint  Information and Situation Centre,GMLZ,,,,Gemeinsames Melde- und Lagezentrum,http://www.bbk.bund.de/SharedDocs/Downloads/BBK/EN/booklets_leaflets/Flyer_GMLZ-en.pdf?__blob=publicationFile,d.d2k
Netherlands,National Crisis Management System,LCMS,,,Landelijk Crisis Management Systeem,,http://www.lcms-academy.nl/,
Denmark,Safety Network,SINE,,Sikkerheds nettet,,,http://www.sikkerhedsnet.dk/sine/,
Spain,Integrated Management System and Emergency Media Management,SIGAME,Sistema Integrado de Gestión y Administración de Medios de Emergencias,,,,http://www.proteccioncivil.org/documents/11803/22691/SIGAME,
