<?xml version="1.0" encoding="iso-8859-1"?>
<!-- Generator: Adobe Illustrator 13.0.0, SVG Export Plug-In . SVG Version: 6.00 Build 14948)  -->
<svg version="1.2" baseProfile="tiny" id="Calque_1"
	 xmlns="http://www.w3.org/2000/svg" xmlns:xlink="http://www.w3.org/1999/xlink" x="0px" y="0px" width="25.002px"
	 height="25.002px" viewBox="0 0 25.002 25.002" xml:space="preserve">
<g id="Planned_police_unit">
	<g>
		<path fill="#FFFFFF" d="M12.501,25.002C5.607,25.002,0,19.395,0,12.503C0,5.609,5.607,0.001,12.501,0.001
			c6.894,0,12.501,5.607,12.501,12.501C25.002,19.395,19.395,25.002,12.501,25.002L12.501,25.002z"/>
		<path d="M9.567,24.654l0.234-0.97c0.864,0.208,1.769,0.318,2.699,0.318l0,0c0.082,0,0.165-0.002,0.247-0.004l0,0l0.021,1
			C12.679,25,12.589,25,12.5,25l0,0C11.491,25,10.508,24.882,9.567,24.654L9.567,24.654z M15.676,23.557
			c0.961-0.275,1.872-0.674,2.715-1.177l0,0l0.513,0.857c-0.915,0.548-1.906,0.983-2.954,1.282l0,0L15.676,23.557L15.676,23.557z
			 M3.949,21.619l0.685-0.73c0.72,0.677,1.527,1.26,2.401,1.733l0,0l-0.475,0.88C5.608,22.986,4.732,22.353,3.949,21.619
			L3.949,21.619z M18.391,22.379h0.002C18.392,22.379,18.392,22.379,18.391,22.379L18.391,22.379L18.391,22.379L18.391,22.379z
			 M20.719,20.546c0.691-0.708,1.292-1.502,1.783-2.367l0,0l0.869,0.496c-0.534,0.939-1.187,1.804-1.938,2.57l0,0L20.719,20.546
			L20.719,20.546z M0.559,16.209l0.954-0.298c0.298,0.956,0.715,1.859,1.237,2.691l0,0l-0.848,0.532
			C1.336,18.229,0.881,17.249,0.559,16.209L0.559,16.209z M23.621,15.438C23.868,14.5,24,13.518,24,12.501l0,0
			c0-0.332-0.015-0.66-0.041-0.984l0,0l0.995-0.083c0.031,0.353,0.045,0.709,0.047,1.068l0,0c0,1.103-0.145,2.173-0.412,3.192l0,0
			L23.621,15.438L23.621,15.438z M0.001,12.501c0-0.917,0.098-1.81,0.285-2.672l0,0l0.977,0.212C1.091,10.833,1,11.657,1,12.501l0,0
			c0,0.165,0.004,0.33,0.01,0.493l0,0h0.002l-1.001,0.041C0.003,12.858,0.001,12.681,0.001,12.501L0.001,12.501z M21.98,5.989
			l0.823-0.567c0.605,0.88,1.103,1.841,1.468,2.864l0,0L23.33,8.624C22.993,7.683,22.537,6.798,21.98,5.989L21.98,5.989z
			 M1.375,6.798c0.493-0.964,1.111-1.853,1.827-2.652l0,0l0.744,0.668c-0.66,0.734-1.225,1.553-1.682,2.44l0,0L1.375,6.798
			L1.375,6.798z M17.528,2.154l0.437-0.899c0.974,0.475,1.877,1.072,2.688,1.771l0,0l-0.652,0.756
			C19.255,3.141,18.423,2.591,17.528,2.154L17.528,2.154z M5.643,2.048C6.536,1.461,7.508,0.986,8.54,0.642l0,0L8.855,1.59
			C7.908,1.908,7.013,2.344,6.191,2.884l0,0L5.643,2.048L5.643,2.048z M12.5,1c-0.249,0-0.493,0.008-0.738,0.025l0,0l-0.063-0.999
			C11.964,0.01,12.231,0,12.5,0l0,0c0.823,0,1.63,0.082,2.411,0.232l0,0L14.72,1.215C14.002,1.074,13.26,1,12.5,1L12.5,1z"/>
	</g>
	<path id="Symbol_4_" d="M5.872,14.396c0.527,0.998,0.992,2.146,2.065,2.686c2.654,1.447,6.051,1.459,8.771,0.175
		c1.253-0.546,1.874-1.812,2.514-2.931C14.975,15.929,10.142,15.94,5.872,14.396z M16.017,8.184
		C13.859,6.907,11.009,6.9,8.866,8.219c-1.705,0.992-3.564,1.667-5.301,2.588c0.679,1.019,1.351,2.077,2.287,2.885
		c1.921,0.667,3.993,0.676,6.004,0.77c2.413-0.016,4.892-0.027,7.21-0.754c0.988-0.766,1.62-1.886,2.288-2.924
		C19.597,9.87,17.727,9.191,16.017,8.184z M14.382,12.228c-0.048,0.14-0.125,0.271-0.235,0.37c-0.104,0.092-0.228,0.156-0.355,0.207
		c-0.239,0.095-0.492,0.151-0.74,0.22c-0.263,0.085-0.453,0.3-0.61,0.518c-0.145-0.23-0.35-0.441-0.616-0.521
		c-0.245-0.067-0.495-0.123-0.732-0.219c-0.135-0.055-0.267-0.125-0.369-0.23c-0.1-0.097-0.166-0.223-0.209-0.353
		c-0.075-0.235-0.109-0.493-0.036-0.732c0.059-0.206,0.183-0.384,0.264-0.579c0.073-0.174,0.065-0.371,0.012-0.548
		c-0.042-0.135-0.144-0.233-0.233-0.336c0.153-0.211,0.309-0.422,0.462-0.635c0.271,0.097,0.571,0.142,0.855,0.074
		c0.23-0.053,0.44-0.18,0.605-0.349c0.188,0.177,0.42,0.315,0.678,0.357c0.264,0.044,0.535-0.001,0.781-0.098
		c0.162,0.211,0.322,0.423,0.479,0.638c-0.07,0.083-0.148,0.161-0.199,0.26c-0.059,0.115-0.076,0.247-0.075,0.375
		c-0.003,0.088,0.018,0.175,0.05,0.256c0.086,0.211,0.222,0.401,0.275,0.625C14.495,11.758,14.458,12.003,14.382,12.228z"/>
</g>
</svg>
