<?xml version="1.0" encoding="iso-8859-1"?>
<!-- Generator: Adobe Illustrator 13.0.0, SVG Export Plug-In . SVG Version: 6.00 Build 14948)  -->
<svg version="1.2" baseProfile="tiny" id="Calque_1"
	 xmlns="http://www.w3.org/2000/svg" xmlns:xlink="http://www.w3.org/1999/xlink" x="0px" y="0px" width="29.762px"
	 height="29.762px" viewBox="0 0 29.762 29.762" xml:space="preserve">
<g id="Traffic_accident">
	<g>
		<g>
			
				<rect x="4.859" y="4.858" transform="matrix(0.7071 -0.7071 0.7071 0.7071 -6.1634 14.8814)" fill-rule="evenodd" fill="#FFDA00" width="20.044" height="20.044"/>
			<path fill="#FF0000" d="M0,14.878L14.881,0l14.526,14.525l-0.353,0.355l0.353-0.355l0.354,0.353L14.881,29.762L0,14.878L0,14.878
				z M1.416,14.878l13.465,13.468l13.466-13.467L14.881,1.413L1.416,14.878L1.416,14.878z"/>
		</g>
	</g>
	<path id="Symbol_96_" d="M22.012,16.475c-0.145-1.277-0.968-2.689-2.43-2.604c-1.384-0.025-2.137,1.294-2.29,2.506
		c-2.073-0.005-4.144-0.001-6.218-0.02c-0.15-1.261-0.986-2.605-2.415-2.52c-1.384-0.023-2.084,1.313-2.377,2.472
		c-0.75-0.819-1.142-2.167-0.261-3.052c1.472-0.831,3.286-0.642,4.827-1.304c1.083-0.552,1.902-1.54,3.051-1.961
		c1.35-0.141,2.74-0.189,4.079,0.042c1.204,0.554,2.021,1.74,3.298,2.176c0.61,0.278,1.437,0.359,1.749,1.046
		C23.444,14.442,23.194,15.855,22.012,16.475z M17.484,10.672c-1.086-0.124-2.192-0.141-3.278,0.003
		c-0.773,0.259-1.375,0.845-2.043,1.288c2.427,0.031,4.854,0.027,7.282,0.012C18.805,11.537,18.253,10.89,17.484,10.672z
		 M20.188,14.638c1.108,0.357,1.389,2.011,0.435,2.691c-0.789,0.726-2.18,0.262-2.451-0.749
		C17.725,15.428,19.051,14.15,20.188,14.638z M19.105,16.743c0.767,0.876,2.054-0.737,1.017-1.32
		C19.348,14.735,18.277,16.108,19.105,16.743z M9.263,14.611c1.088,0.396,1.372,2.012,0.404,2.696
		c-0.891,0.797-2.434,0.111-2.527-1.05C6.986,15.156,8.232,14.154,9.263,14.611z M8.172,16.724c0.798,0.813,1.955-0.659,1.074-1.337
		C8.4,14.725,7.274,16.075,8.172,16.724z"/>
</g>
</svg>
