<?xml version="1.0" encoding="iso-8859-1"?>
<!-- Generator: Adobe Illustrator 13.0.0, SVG Export Plug-In . SVG Version: 6.00 Build 14948)  -->
<svg version="1.2" baseProfile="tiny" id="Calque_1"
	 xmlns="http://www.w3.org/2000/svg" xmlns:xlink="http://www.w3.org/1999/xlink" x="0px" y="0px" width="29.762px"
	 height="29.762px" viewBox="0 0 29.762 29.762" xml:space="preserve">
<g id="Avalanche">
	<g>
		<g>
			
				<rect x="4.859" y="4.858" transform="matrix(0.7071 -0.7071 0.7071 0.7071 -6.1634 14.8814)" fill-rule="evenodd" fill="#FFDA00" width="20.044" height="20.044"/>
			<path fill="#FF0000" d="M0,14.878L14.881,0l14.526,14.525l-0.353,0.355l0.353-0.355l0.354,0.353L14.881,29.762L0,14.878L0,14.878
				z M1.416,14.878l13.465,13.468l13.466-13.467L14.881,1.413L1.416,14.878L1.416,14.878z"/>
		</g>
	</g>
	<path id="Symbol_17_" d="M18.402,7.75L18.402,7.75l-1.989-3.079l-3.621,5.836l-2.777-1.934l-4.992,9.21H10.4
		c-0.19,1.085,0.419,1.949,1.151,1.949c0.209,0,0.429-0.07,0.643-0.227c-0.191,0.352,0.487,2.385,2.801,2.385
		c0.233,0,0.482-0.021,0.75-0.065c3.34-0.808,2.848-2.601,2.145-3.339c0.494,0.404,1.043,0.574,1.554,0.574
		c0.918,0,1.711-0.549,1.844-1.277h3.599L18.402,7.75z M10.361,10.035l1.863,1.273l-0.897,1.408l-1.868-1.064L10.361,10.035z
		 M19.443,18.312c-0.267,0-0.67-0.07-1.08-0.405c-0.066-0.055-0.141-0.095-0.218-0.123h-0.482c-0.119,0.038-0.233,0.096-0.324,0.194
		c-0.269,0.291-0.266,0.74,0.008,1.027c0.152,0.16,0.382,0.525,0.277,0.88c-0.143,0.486-0.882,0.925-2.029,1.207
		c-0.208,0.034-0.409,0.051-0.6,0.051c-1.561,0-2.03-1.161-2.077-1.437c0.075-0.272-0.009-0.57-0.229-0.763
		c-0.142-0.124-0.317-0.186-0.495-0.186c-0.154,0-0.31,0.048-0.442,0.144c-0.051,0.038-0.128,0.083-0.2,0.083
		c-0.1,0-0.187-0.085-0.229-0.137c-0.18-0.214-0.248-0.563-0.183-0.933c0.008-0.048,0.021-0.088,0.033-0.13
		c0,0,0.293-0.297,0.637-0.675c0.303-0.332,0.301-0.856-0.009-1.188c-0.175-0.179-0.405-0.277-0.64-0.277
		c-0.197,0-0.391,0.067-0.548,0.191c-0.383,0.312-0.646,0.458-0.807,0.525c0.01-0.091,0.034-0.214,0.09-0.36
		c0.175-0.473,0.604-1.027,1.242-1.027c0.218,0,0.491-0.065,0.677-0.249c0.203-0.194,0.31-0.412,0.304-0.64
		c-0.021-0.982,0.077-1.125,0.621-1.909c0.23-0.332,0.489-0.707,0.797-1.212l2.889-4.657l0.764,1.18
		c-1.257,1.123-1.642,3.3-1.344,4.949c0.295,1.646,1.267,2.669,2.532,2.669c0.061,0,0.122-0.002,0.186-0.006
		c0.092-0.008,0.183-0.012,0.271-0.012c0.261,0,0.467,0.031,0.626,0.076c-0.129,0.1-0.23,0.238-0.288,0.399
		c-0.134,0.401,0.029,0.839,0.388,1.045c0.576,0.34,0.919,0.742,0.868,1.021c-0.01,0.052,0.059,0.157,0.059,0.157
		C20.348,18.058,19.966,18.312,19.443,18.312z M13.272,15.304c-0.096-0.007,0.248-2.037,0.486-2.417
		c0.134-0.36,0.153-0.601,0.153-0.948c-0.235,0.265-0.374,0.439-0.52,0.813c-0.25,0.374-0.613,2.541-0.51,2.557
		c-0.174,0.015,0.365,2.209,0.785,2.498c0.253,0.319,0.453,0.462,0.744,0.632c-0.114-0.345-0.189-0.553-0.421-0.85
		C13.611,17.317,13.113,15.328,13.272,15.304z M15.374,14.203c-0.081,0.018-0.167-1.969-0.064-2.375
		c0.031-0.37-0.017-0.584-0.111-0.911c-0.152,0.296-0.24,0.505-0.277,0.881c-0.112,0.4-0.017,2.483,0.07,2.481
		c-0.125,0.034,0.711,2.022,1.148,2.227c0.255,0.288,0.468,0.379,0.772,0.515c-0.13-0.314-0.245-0.499-0.482-0.775
		C16.014,16.03,15.268,14.245,15.374,14.203z"/>
</g>
</svg>
