<?xml version="1.0" encoding="iso-8859-1"?>
<!-- Generator: Adobe Illustrator 13.0.0, SVG Export Plug-In . SVG Version: 6.00 Build 14948)  -->
<svg version="1.2" baseProfile="tiny" id="Calque_1"
	 xmlns="http://www.w3.org/2000/svg" xmlns:xlink="http://www.w3.org/1999/xlink" x="0px" y="0px" width="29.762px"
	 height="29.762px" viewBox="0 0 29.762 29.762" xml:space="preserve">
<g id="Earthquake">
	<g>
		<g>
			
				<rect x="4.859" y="4.858" transform="matrix(0.7071 -0.7071 0.7071 0.7071 -6.1634 14.8814)" fill-rule="evenodd" fill="#FFDA00" width="20.044" height="20.044"/>
			<path fill="#FF0000" d="M0,14.878L14.881,0l14.526,14.525l-0.353,0.355l0.353-0.355l0.354,0.353L14.881,29.762L0,14.878L0,14.878
				z M1.416,14.878l13.465,13.468l13.466-13.467L14.881,1.413L1.416,14.878L1.416,14.878z"/>
		</g>
	</g>
	<path d="M17.85,4.403l-1.491-1.491c-0.498-0.068-1.002-0.118-1.52-0.118c-0.501,0-0.989,0.047-1.472,0.112l-1.477,1.477
		c0.938-0.272,1.923-0.431,2.948-0.433C15.888,3.951,16.895,4.118,17.85,4.403z M4.597,11.676L3.12,13.153
		c-0.064,0.483-0.112,0.972-0.112,1.472c0,0.706,0.078,1.393,0.197,2.065l1.643,1.643c-0.431-1.157-0.682-2.401-0.683-3.708
		C4.166,13.599,4.324,12.614,4.597,11.676z M14.841,6.508c-4.486,0-8.116,3.633-8.12,8.117c0.003,3.595,2.349,6.621,5.587,7.687
		l-0.005,0.007l-1.073,2.335c-0.033-0.012-0.066-0.025-0.1-0.038l0.511,0.54l1.173-2.569l1.491-2.486l-1.017-2.104l1.393-2.216
		l0.401,1.618l2.72,2.056l-0.804,3.212l1.521,2.021l0.414-0.413l-1.308-1.734l0.088-0.349c3.057-1.163,5.242-4.099,5.243-7.565
		C22.954,10.141,19.321,6.508,14.841,6.508z M15.595,17.062l-0.229-0.916c0.641-0.222,1.112-0.803,1.112-1.52
		c0-0.906-0.733-1.639-1.639-1.639c-0.906,0-1.64,0.733-1.64,1.639c0,0.549,0.28,1.021,0.696,1.317l-0.788,1.252
		c-0.835-0.563-1.405-1.487-1.407-2.57c0.002-1.732,1.406-3.136,3.138-3.138c1.732,0.002,3.136,1.406,3.138,3.138
		c-0.001,1.271-0.766,2.345-1.851,2.837L15.595,17.062z M18.069,20.765l0.385-1.543l-1.325-1.001
		c1.197-0.761,2.003-2.075,2.003-3.596c0-2.37-1.923-4.292-4.293-4.292c-2.369,0-4.292,1.923-4.292,4.292
		c0,1.647,0.937,3.063,2.299,3.782l0.805,1.663l-0.73,1.22c-2.905-0.839-5.037-3.49-5.042-6.666
		c0.006-3.845,3.115-6.955,6.963-6.961c3.843,0.007,6.955,3.116,6.961,6.961C21.797,17.299,20.278,19.599,18.069,20.765z
		 M26.551,13.104l-1.49-1.49c0.286,0.956,0.453,1.962,0.454,3.011c-0.003,1.338-0.268,2.608-0.721,3.786l1.654-1.654
		c0.13-0.694,0.22-1.401,0.22-2.132C26.668,14.107,26.619,13.603,26.551,13.104z"/>
</g>
</svg>
