<?xml version="1.0" encoding="iso-8859-1"?>
<!-- Generator: Adobe Illustrator 13.0.0, SVG Export Plug-In . SVG Version: 6.00 Build 14948)  -->
<svg version="1.2" baseProfile="tiny" id="Calque_1"
	 xmlns="http://www.w3.org/2000/svg" xmlns:xlink="http://www.w3.org/1999/xlink" x="0px" y="0px" width="29.762px"
	 height="29.762px" viewBox="0 0 29.762 29.762" xml:space="preserve">
<g id="Marine_accident">
	<g>
		<g>
			
				<rect x="4.859" y="4.858" transform="matrix(0.7071 -0.7071 0.7071 0.7071 -6.1634 14.8814)" fill-rule="evenodd" fill="#FFDA00" width="20.044" height="20.044"/>
			<path fill="#FF0000" d="M0,14.878L14.881,0l14.526,14.525l-0.353,0.355l0.353-0.355l0.354,0.353L14.881,29.762L0,14.878L0,14.878
				z M1.416,14.878l13.465,13.468l13.466-13.467L14.881,1.413L1.416,14.878L1.416,14.878z"/>
		</g>
	</g>
	<path d="M6.85,17.904c1.446-0.092,1.446-1.266,2.348-1.173c0.903-0.093,0.903,1.082,2.347,1.173
		c1.444-0.092,1.444-1.266,2.348-1.173c0.902-0.093,0.902,1.082,2.347,1.173c1.444-0.092,1.444-1.266,2.346-1.173
		c0.903-0.093,0.903,1.082,2.347,1.173c1.446-0.092,1.446-1.266,2.348-1.173c0.839-0.086,0.913,0.909,2.073,1.127l1.983-1.983
		c-0.82,0.332-0.969,1.096-1.709,1.02c-0.901,0.092-0.901-1.082-2.348-1.173c-1.444,0.092-1.444,1.266-2.348,1.173
		c-0.405,0.042-0.63-0.176-0.885-0.433l0.005-0.557l-1.229-0.911c0.092-0.066,0.936-0.682,1.201-1.026
		c0.086-0.112,0.125-0.206,0.079-0.259c-0.197-0.229-0.756-0.492-0.756-0.492l-1.863,0.785l-0.234-0.174
		c0,0,0.788-0.558,1.069-0.923c0.086-0.112,0.125-0.206,0.079-0.259c-0.197-0.229-0.756-0.492-0.756-0.492l-1.87,0.788
		c0,0-1.257-0.868-2.101-1.412c-0.581,0.163-1.384,0.52-1.809,0.716c-1.123-0.635-2.251-1.259-3.4-1.843
		c0.393,1.7,0.803,2.4,1.133,4.116l3.091,1.703c-0.385,0.345-0.608,0.729-1.141,0.674c-0.902,0.092-0.902-1.082-2.347-1.173
		c-1.443,0.092-1.443,1.266-2.348,1.173c-0.901,0.092-0.901-1.082-2.348-1.173c-0.819,0.052-1.176,0.448-1.495,0.766l0.641,0.641
		c0.243-0.242,0.467-0.438,0.854-0.397C5.405,16.638,5.405,17.812,6.85,17.904z M16.504,16.28c0.25,0.16,0.178,0.447,0.003,0.597
		c-0.082,0.018-0.168,0.028-0.269,0.018c-0.066,0.007-0.119-0.006-0.177-0.012c-0.008-0.007-0.017-0.008-0.025-0.016
		C15.687,16.579,16.145,15.993,16.504,16.28z M14.863,15.563c-0.022,0.201-0.077,0.315-0.151,0.381
		c-0.134-0.073-0.299-0.126-0.483-0.167C14.291,15.316,14.502,15.24,14.863,15.563z"/>
</g>
</svg>
