<?xml version="1.0"?>
<!DOCTYPE svg PUBLIC "-//W3C//DTD SVG 1.1//EN" "http://www.w3.org/Graphics/SVG/1.1/DTD/svg11.dtd">
<svg xmlns="http://www.w3.org/2000/svg" xmlns:xl="http://www.w3.org/1999/xlink" version="1.1" viewBox="-4 1 229 204" width="229pt" height="17pc"><metadata xmlns:dc="http://purl.org/dc/elements/1.1/"><dc:date>2015-03-10 10:00Z</dc:date><!-- Produced by OmniGraffle Professional 5.4.4 --></metadata><defs><font-face font-family="Calibri" font-size="32" panose-1="2 15 7 2 3 4 4 3 2 4" units-per-em="1000" underline-position="-87.402344" underline-thickness="90.82031" slope="0" x-height="468.75" cap-height="631.83594" ascent="952.14844" descent="-268.55469" font-weight="bold"><font-face-src><font-face-name name="Calibri-Bold"/></font-face-src></font-face></defs><g stroke="none" stroke-opacity="1" stroke-dasharray="none" fill="none" fill-opacity="1"><title>Canevas 1</title><g><title>Calque 1</title><rect x="9" y="14" width="203" height="178" fill="white"/><rect x="9" y="14" width="203" height="178" stroke="black" stroke-linecap="round" stroke-linejoin="round" stroke-width="5"/><text transform="translate(18 22.5)" fill="black"><tspan font-family="Calibri" font-size="32" font-weight="bold" x="0" y="30" textLength="50.21875">Cen</tspan><tspan font-family="Calibri" font-size="32" font-weight="bold" x="49.921875" y="30" textLength="22.46875">tr</tspan><tspan font-family="Calibri" font-size="32" font-weight="bold" x="72" y="30" textLength="57.71875">o de</tspan><tspan font-family="Calibri" font-size="32" font-weight="bold" x="0" y="69" textLength="69.625">emer</tspan><tspan font-family="Calibri" font-size="32" font-weight="bold" x="69.25" y="69" textLength="15.171875">g</tspan><tspan font-family="Calibri" font-size="32" font-weight="bold" x="84.078125" y="69" textLength="83.09375">encias</tspan><tspan font-family="Calibri" font-size="32" font-weight="bold" x="0" y="108" textLength="9.96875">(</tspan><tspan font-family="Calibri" font-size="32" font-weight="bold" x="10.125" y="108" textLength="15.171875">g</tspan><tspan font-family="Calibri" font-size="32" font-weight="bold" x="24.953125" y="108" textLength="28.875">es</tspan><tspan font-family="Calibri" font-size="32" font-weight="bold" x="53.46875" y="108" textLength="18.734375">ti</tspan><tspan font-family="Calibri" font-size="32" font-weight="bold" x="72.203125" y="108" textLength="74.890625">ón de</tspan><tspan font-family="Calibri" font-size="32" font-weight="bold" x="0" y="147" textLength="129.046875">llamadas)</tspan></text></g></g></svg>
