<?xml version="1.0" encoding="UTF-8" standalone="no"?>
<!-- Creator: CorelDRAW -->
<svg
   xmlns:dc="http://purl.org/dc/elements/1.1/"
   xmlns:cc="http://creativecommons.org/ns#"
   xmlns:rdf="http://www.w3.org/1999/02/22-rdf-syntax-ns#"
   xmlns:svg="http://www.w3.org/2000/svg"
   xmlns="http://www.w3.org/2000/svg"
   xmlns:sodipodi="http://sodipodi.sourceforge.net/DTD/sodipodi-0.dtd"
   xmlns:inkscape="http://www.inkscape.org/namespaces/inkscape"
   xml:space="preserve"
   width="525px"
   height="350px"
   style="shape-rendering:geometricPrecision; text-rendering:geometricPrecision; image-rendering:optimizeQuality; fill-rule:evenodd; clip-rule:evenodd"
   viewBox="0 0 414.474 276.316"
   id="svg2"
   sodipodi:version="0.32"
   inkscape:version="0.46dev+devel"
   sodipodi:docname="Flag_maritime_barcelona.svg"
   inkscape:output_extension="org.inkscape.output.svg.inkscape"><metadata
   id="metadata21"><rdf:RDF><cc:Work
       rdf:about=""><dc:format>image/svg+xml</dc:format><dc:type
         rdf:resource="http://purl.org/dc/dcmitype/StillImage" /></cc:Work></rdf:RDF></metadata><sodipodi:namedview
   inkscape:window-height="644"
   inkscape:window-width="640"
   inkscape:pageshadow="2"
   inkscape:pageopacity="0.0"
   guidetolerance="10.0"
   gridtolerance="10.0"
   objecttolerance="10.0"
   borderopacity="1.0"
   bordercolor="#666666"
   pagecolor="#ffffff"
   id="base"
   showgrid="false"
   inkscape:zoom="1.0361905"
   inkscape:cx="262.5"
   inkscape:cy="175"
   inkscape:window-x="66"
   inkscape:window-y="87"
   inkscape:current-layer="svg2" />
 <defs
   id="defs4">
  <style
   type="text/css"
   id="style6">
   
    .fil1 {fill:blue}
    .fil3 {fill:red}
    .fil2 {fill:yellow}
    .fil0 {fill:white}
   
  </style>
 </defs>
 <g
   id="Capa_x0020_1">
  <metadata
   id="CorelCorpID_0Corel-Layer" />
  <polygon
   class="fil0"
   points="103.618,69.0789 310.855,69.0789 310.855,207.237 103.618,207.237 "
   id="polygon10" />
  <polygon
   class="fil1"
   points="0,0 414.474,0 414.473,138.158 0,138.158 "
   id="polygon12"
   style="fill:#0f47af" />
  <polygon
   class="fil2"
   points="0,138.158 414.474,138.158 414.474,276.316 0,276.316 "
   id="polygon14"
   style="fill:#fcdd09" />
  <polygon
   class="fil0"
   points="207.237,0 414.474,0 414.473,138.158 207.237,138.158 "
   id="polygon16"
   style="fill:#ffffff" />
  <polygon
   class="fil3"
   points="207.237,138.158 414.474,138.158 414.474,276.316 207.237,276.316 "
   id="polygon18"
   style="fill:#da121a" />
 </g>
</svg>