<?xml version="1.0" encoding="iso-8859-1"?>
<!-- Generator: Adobe Illustrator 13.0.0, SVG Export Plug-In . SVG Version: 6.00 Build 14948)  -->
<svg version="1.2" baseProfile="tiny" id="Calque_1"
	 xmlns="http://www.w3.org/2000/svg" xmlns:xlink="http://www.w3.org/1999/xlink" x="0px" y="0px" width="25px" height="25px"
	 viewBox="0 0 25 25" xml:space="preserve">
<g id="Police_unit">
	<g>
		<path fill="#070707" d="M0,12.5C0.001,5.596,5.598,0,12.501,0l0,0C19.404,0,25,5.596,25,12.5l0,0
			c0,6.902-5.596,12.498-12.499,12.5l0,0C5.598,24.998,0.001,19.402,0,12.5L0,12.5z"/>
		<path fill="#FFFFFF" d="M1,12.5c0.012,6.353,5.15,11.487,11.501,11.499l0,0C18.852,23.987,23.989,18.853,24,12.5l0,0
			C23.989,6.148,18.852,1.011,12.501,0.999l0,0C6.15,1.011,1.013,6.148,1,12.5L1,12.5z"/>
	</g>
	<path id="Symbol_30_" d="M5.861,14.386c0.526,0.999,0.991,2.147,2.064,2.687c2.654,1.447,6.051,1.459,8.772,0.174
		c1.253-0.545,1.873-1.811,2.514-2.931C14.964,15.92,10.132,15.932,5.861,14.386z M16.007,8.175
		c-2.159-1.277-5.009-1.284-7.151,0.035c-1.706,0.992-3.564,1.667-5.302,2.588c0.68,1.019,1.351,2.077,2.288,2.885
		c1.921,0.666,3.993,0.675,6.004,0.769c2.412-0.016,4.891-0.027,7.21-0.753c0.987-0.766,1.62-1.886,2.287-2.924
		C19.586,9.861,17.717,9.182,16.007,8.175z M14.372,12.219c-0.048,0.14-0.126,0.271-0.236,0.37
		c-0.103,0.092-0.227,0.156-0.354,0.207c-0.24,0.095-0.493,0.151-0.741,0.22c-0.262,0.085-0.452,0.3-0.609,0.517
		c-0.146-0.23-0.35-0.44-0.616-0.521c-0.246-0.067-0.495-0.123-0.732-0.219c-0.136-0.055-0.268-0.125-0.37-0.23
		c-0.1-0.097-0.166-0.223-0.209-0.353c-0.074-0.235-0.108-0.493-0.035-0.732c0.059-0.206,0.182-0.384,0.263-0.579
		c0.074-0.174,0.065-0.371,0.012-0.548c-0.041-0.135-0.144-0.233-0.233-0.336c0.153-0.211,0.31-0.422,0.462-0.635
		c0.272,0.097,0.571,0.142,0.855,0.074c0.23-0.053,0.44-0.18,0.605-0.349c0.188,0.177,0.421,0.315,0.679,0.357
		c0.263,0.044,0.535-0.001,0.781-0.098c0.162,0.211,0.322,0.423,0.479,0.638c-0.07,0.083-0.149,0.161-0.199,0.26
		c-0.059,0.115-0.076,0.247-0.075,0.375c-0.003,0.088,0.018,0.175,0.05,0.256c0.085,0.211,0.222,0.401,0.274,0.625
		C14.483,11.749,14.446,11.994,14.372,12.219z"/>
</g>
</svg>
