<?xml version="1.0"?>
<!DOCTYPE svg PUBLIC "-//W3C//DTD SVG 1.1//EN" "http://www.w3.org/Graphics/SVG/1.1/DTD/svg11.dtd">
<svg xmlns="http://www.w3.org/2000/svg" xmlns:xl="http://www.w3.org/1999/xlink" version="1.1" viewBox="3 1 543 281" width="543pt" height="281pt"><metadata xmlns:dc="http://purl.org/dc/elements/1.1/"><dc:date>2014-11-11 14:46Z</dc:date><!-- Produced by OmniGraffle Professional 5.4.4 --></metadata><defs></defs><g stroke="none" stroke-opacity="1" stroke-dasharray="none" fill="none" fill-opacity="1"><title>Canevas 1</title><rect fill="white" width="559" height="783"/><g><title>Calque 1</title><rect x="22" y="132.79416" width="504" height="17" fill="blue"/><path d="M 536.3923 16.42625 L 459.3923 149.79416 L 449 143.79416 L 526 10.4262505 Z" fill="blue"/><path d="M 459.3923 132.79416 L 536.3923 266.16207 L 526 272.16207 L 449 138.79416 Z" fill="blue"/><path d="M 12.0000006 16.42625 L 89 149.79416 L 99.392305 143.79416 L 22.392305 10.4262505 Z" fill="blue"/><path d="M 89 132.79416 L 12 266.16207 L 22.392305 272.16207 L 99.392305 138.79416 Z" fill="blue"/></g></g></svg>
