<?xml version="1.0" encoding="iso-8859-1"?>
<!-- Generator: Adobe Illustrator 13.0.0, SVG Export Plug-In . SVG Version: 6.00 Build 14948)  -->
<svg version="1.2" baseProfile="tiny" id="Calque_1"
	 xmlns="http://www.w3.org/2000/svg" xmlns:xlink="http://www.w3.org/1999/xlink" x="0px" y="0px" width="24.998px"
	 height="24.999px" viewBox="0 0 24.998 24.999" xml:space="preserve">
<g id="Shelter">
	<g>
		<rect x="0.5" y="0.5" fill="#164ED8" width="24" height="24"/>
		<path fill="#FFFFFF" d="M0,0v24.999h24.998V0H0z M0.998,24.001V0.999h23L24,24.001H0.998z M2.222,5.804l0.557,1.393L12.5,3.309
			l9.721,3.887l0.557-1.393l-10.28-4.113L2.222,5.804z"/>
	</g>
	<path fill="#FFFFFF" d="M12.325,11.315c0.189,0.088,0.4,0.134,0.612,0.134c0.185,0,0.37-0.035,0.54-0.102
		c0.318-0.123,0.594-0.365,0.756-0.665c0.117-0.216,0.179-0.462,0.179-0.709c0-0.146-0.021-0.29-0.062-0.427
		c-0.093-0.309-0.292-0.586-0.555-0.771c-0.246-0.179-0.551-0.273-0.854-0.273c-0.024,0-0.051,0-0.082,0.003
		c-0.296,0.018-0.585,0.123-0.817,0.305H12.04c-0.296,0.227-0.502,0.574-0.555,0.945c-0.013,0.07-0.017,0.145-0.017,0.221
		c0,0.246,0.062,0.492,0.181,0.708C11.799,10.958,12.04,11.185,12.325,11.315z M16.411,13.063c-0.335-0.495-0.925-0.817-1.521-0.823
		h-3.677c-0.062,0-0.119-0.003-0.173-0.003c-0.062,0-0.119,0.003-0.176,0.009c-0.44,0.043-0.869,0.242-1.176,0.563
		c-0.339,0.335-0.54,0.812-0.546,1.285c-0.002,0.816-0.002,1.629,0,2.447c-0.002,0.813-0.002,1.631-0.002,2.448v0.002
		c0,0.191,0.08,0.389,0.222,0.508c0.099,0.086,0.234,0.132,0.37,0.132c0.103,0,0.205-0.025,0.289-0.072
		c0.138-0.08,0.242-0.229,0.279-0.387c0.021-0.088,0.024-0.183,0.024-0.287v-0.127c0-0.02,0.003-0.039,0.003-0.048
		c-0.009-0.212-0.009-0.421-0.009-0.63c0-0.208,0.002-0.416,0.002-0.623s-0.002-0.415-0.006-0.623v-0.658
		c0-0.442,0-0.88,0.002-1.276c-0.01-0.028-0.01-0.056-0.01-0.06c0-0.022,0.002-0.045,0.002-0.065
		c-0.002-0.082,0.004-0.216,0.108-0.3c0.06-0.063,0.138-0.086,0.21-0.086c0.156,0,0.322,0.115,0.326,0.31v0.005
		c0.002,0.591,0.009,1.185,0.009,1.78v0.304c0.004,0.225,0.004,0.45,0.004,0.674c0,0.182,0.002,0.363,0.002,0.545v0.197
		c0.004,0.182,0.004,0.365,0.004,0.548c0,0.202-0.002,0.407-0.002,0.61c0,0.193,0.004,0.387,0.008,0.586v0.149
		c0,0.009,0,0.018,0.001,0.026h3.91v-5.431c0.019-0.171,0.154-0.298,0.325-0.302c0.021,0,0.032,0.002,0.028,0.002
		c0.169,0.018,0.271,0.158,0.279,0.308c0.002,0.05,0.002,0.101,0.002,0.154v0.203c0,0.031,0,0.063,0.002,0.099
		c0.002,0.104,0.002,0.207,0.002,0.311v0.3c0,0.101,0.003,0.201,0.007,0.306c0.002,0.972,0.014,1.943,0.019,2.913
		c0.004,0.188,0.073,0.38,0.205,0.499c0.099,0.092,0.242,0.146,0.389,0.146c0.11,0,0.222-0.031,0.313-0.089
		c0.128-0.08,0.22-0.222,0.257-0.378c0.022-0.099,0.025-0.209,0.025-0.33v-0.02c0-0.024,0-0.047,0.002-0.067
		c-0.002-0.517-0.002-1.034-0.002-1.551c0-1.036,0-2.069,0.002-3.1C16.737,13.73,16.62,13.365,16.411,13.063z M18.989,14.724
		c0.109,0.051,0.231,0.078,0.354,0.078c0.107,0,0.214-0.02,0.313-0.059c0.185-0.071,0.344-0.212,0.438-0.386
		c0.068-0.125,0.104-0.268,0.104-0.411c0-0.084-0.012-0.168-0.035-0.247c-0.054-0.179-0.169-0.34-0.321-0.447
		c-0.144-0.104-0.319-0.159-0.496-0.159c-0.014,0-0.029,0-0.048,0.002c-0.171,0.01-0.339,0.071-0.474,0.176h-0.001
		c-0.172,0.131-0.291,0.333-0.321,0.548c-0.008,0.041-0.01,0.083-0.01,0.128c0,0.143,0.036,0.285,0.104,0.41
		C18.683,14.517,18.823,14.648,18.989,14.724z M22.099,16.397c-0.005-0.212-0.073-0.424-0.194-0.599
		c-0.194-0.287-0.536-0.474-0.881-0.477h-2.132c-0.036,0-0.069-0.002-0.101-0.002c-0.035,0-0.069,0.002-0.102,0.005
		c-0.256,0.024-0.504,0.14-0.682,0.326c-0.196,0.194-0.313,0.471-0.317,0.745c-0.001,0.474-0.001,0.944,0,1.419
		c-0.001,0.472-0.001,0.945-0.001,1.419v0.001c0,0.111,0.047,0.226,0.129,0.294c0.057,0.05,0.136,0.077,0.215,0.077
		c0.059,0,0.118-0.015,0.167-0.042c0.08-0.046,0.141-0.133,0.162-0.224c0.012-0.051,0.015-0.106,0.015-0.167V19.1
		c0-0.011,0.001-0.022,0.001-0.028c-0.005-0.123-0.005-0.244-0.005-0.365c0-0.121,0.001-0.241,0.001-0.361
		c0-0.12-0.001-0.241-0.003-0.361v-0.382c0-0.256,0-0.51,0.001-0.74c-0.006-0.017-0.006-0.032-0.006-0.035
		c0-0.013,0.001-0.026,0.001-0.038c-0.001-0.047,0.003-0.125,0.063-0.174c0.034-0.036,0.08-0.05,0.121-0.05
		c0.091,0,0.188,0.067,0.189,0.18v0.003c0.001,0.342,0.005,0.687,0.005,1.032v0.176c0.002,0.13,0.002,0.261,0.002,0.391
		c0,0.105,0.002,0.211,0.002,0.316v0.114c0.002,0.105,0.002,0.212,0.002,0.318c0,0.117-0.001,0.236-0.001,0.354
		c0,0.112,0.002,0.224,0.005,0.339v0.102h2.268v-3.148c0.011-0.099,0.089-0.173,0.188-0.175c0.012,0,0.02,0.001,0.017,0.001
		c0.098,0.01,0.157,0.092,0.162,0.178c0.001,0.029,0.001,0.059,0.001,0.089v0.118c0,0.018,0,0.037,0.002,0.057
		c0.001,0.06,0.001,0.12,0.001,0.18v0.173c0,0.059,0.001,0.117,0.003,0.177c0.002,0.563,0.009,1.127,0.011,1.689
		c0.003,0.109,0.043,0.22,0.12,0.29c0.057,0.053,0.14,0.085,0.225,0.085c0.064,0,0.129-0.019,0.182-0.052
		c0.074-0.046,0.128-0.128,0.149-0.219c0.013-0.057,0.015-0.121,0.015-0.191v-0.011c0-0.014,0-0.027,0.001-0.039
		c-0.001-0.299-0.001-0.6-0.001-0.899C22.098,17.594,22.098,16.995,22.099,16.397z M8.343,18.991v-0.017
		c0-0.002,0.001-0.006,0.002-0.01v-4.875l0.001-0.002c-0.278-0.225-0.625-0.365-0.983-0.369H4.412c-0.098,0-0.194-0.004-0.291,0.006
		c-0.377,0.035-0.742,0.205-1.005,0.479c-0.291,0.288-0.461,0.694-0.468,1.103c-0.001,1.311,0,2.619-0.001,3.932
		c-0.001,0.18,0.072,0.365,0.212,0.486c0.176,0.15,0.446,0.168,0.646,0.057c0.136-0.08,0.234-0.221,0.271-0.373
		C3.81,19.277,3.798,19.142,3.8,19.01c-0.012-0.501,0.004-1.002-0.009-1.503c0.001-0.529,0.001-1.059-0.005-1.588
		c0.001-0.082-0.014-0.18,0.058-0.236c0.091-0.087,0.263-0.016,0.259,0.113c0.002,0.559,0.01,1.117,0.007,1.675
		c0.009,0.38,0.003,0.759,0.005,1.137c0.012,0.466-0.004,0.931,0.009,1.397c0,0.082,0.001,0.162-0.001,0.244h3.341v-4.453
		c0.008-0.085,0.089-0.158,0.175-0.15c0.074,0.008,0.13,0.077,0.133,0.15c0.006,0.12,0,0.244,0.003,0.367
		c0.01,0.244-0.003,0.488,0.007,0.732c0.002,0.78,0.012,1.561,0.016,2.342c0.004,0.172,0.065,0.352,0.196,0.469
		c0.18,0.172,0.478,0.192,0.686,0.059c0.016-0.01,0.024-0.027,0.039-0.039c-0.021-0.014-0.046-0.02-0.065-0.037
		C8.448,19.511,8.343,19.25,8.343,18.991z M5.26,13.167c0.313,0.145,0.684,0.154,1.005,0.027c0.278-0.107,0.516-0.316,0.659-0.578
		c0.165-0.299,0.2-0.664,0.101-0.99c-0.081-0.269-0.253-0.509-0.481-0.671c-0.235-0.169-0.528-0.252-0.816-0.235
		c-0.257,0.015-0.51,0.105-0.714,0.266c-0.26,0.198-0.437,0.499-0.483,0.822c-0.042,0.276,0.008,0.566,0.143,0.81
		C4.804,12.857,5.012,13.052,5.26,13.167z"/>
</g>
</svg>
