<?xml version="1.0" encoding="iso-8859-1"?>
<!-- Generator: Adobe Illustrator 13.0.0, SVG Export Plug-In . SVG Version: 6.00 Build 14948)  -->
<svg version="1.2" baseProfile="tiny" id="Calque_1"
	 xmlns="http://www.w3.org/2000/svg" xmlns:xlink="http://www.w3.org/1999/xlink" x="0px" y="0px" width="32.165px"
	 height="25.733px" viewBox="0 0 32.165 25.733" xml:space="preserve">
<g id="Aircraft">
	<g>
		<path d="M0,0h32.165L16.632,24.917l-0.51,0.815L0,0L0,0z M16.122,24.602l0.508-0.32L16.122,24.602L16.122,24.602z"/>
		<polygon fill="#FFFFFF" points="16.12,23.468 30.001,1.199 2.167,1.199 16.12,23.468 		"/>
	</g>
	<path id="Symbol_72_" fill="#0F0F0F" d="M23.45,9.248c-0.108,0.053-0.215,0.107-0.324,0.159c-0.356,0.167-0.718,0.327-1.082,0.479
		c-1.038,0.438-2.09,0.849-3.075,1.382c-0.358,0.193-0.707,0.405-1.042,0.641v0.001c-0.072,0.05-0.148,0.093-0.219,0.146
		c-0.021,1.58,0.104,3.196-0.338,4.734c-0.158,0.499-0.356,1.026-0.773,1.37c-0.167,0.12-0.336,0.193-0.474,0.208v0.002
		c-0.006,0.001-0.014,0-0.021,0c-0.008,0.001-0.015,0.001-0.021,0.001s-0.014,0-0.021-0.001c-0.007,0-0.014,0.001-0.021,0v-0.002
		c-0.138-0.015-0.307-0.088-0.474-0.208c-0.417-0.344-0.615-0.871-0.773-1.37c-0.441-1.538-0.316-3.154-0.338-4.734
		c-0.07-0.053-0.146-0.096-0.219-0.146v-0.001c-0.335-0.235-0.684-0.447-1.042-0.641c-0.985-0.533-2.037-0.944-3.075-1.382
		C9.754,9.734,9.393,9.574,9.036,9.407C8.927,9.355,8.82,9.301,8.712,9.248C8.285,9.037,7.865,8.813,7.465,8.554
		c0.1-0.495,0.425-1.001,0.96-1.071c0.822-0.039,1.6,0.292,2.396,0.433c0.64,0.115,1.276,0.276,1.918,0.399l0.001,0.001
		c0.64,0.124,1.283,0.212,1.938,0.185c0.037-0.273,0.078-0.598,0.119-0.935c0.123-1.014,0.245-2.147,0.254-2.383
		c0.002-0.181,0.021-0.211-0.156-0.406c-0.192-0.229-0.419-0.404-0.652-0.572c-0.435-0.312-0.903-0.586-1.287-1.056
		c0,0-0.01-0.554,0.038-0.905c0.006-0.05,0.014-0.096,0.023-0.136c0.752,0.178,1.577,0.345,2.273,0.502
		c0.082-0.468,0.162-0.748,0.307-1.171c0.131-0.188,0.273-0.231,0.483-0.226c0.21-0.006,0.353,0.038,0.483,0.226
		c0.145,0.423,0.225,0.703,0.307,1.171c0.696-0.157,1.521-0.324,2.273-0.502c0.01,0.04,0.018,0.086,0.023,0.136
		c0.048,0.352,0.038,0.905,0.038,0.905c-0.384,0.47-0.853,0.744-1.287,1.056c-0.233,0.168-0.46,0.344-0.652,0.572
		c-0.178,0.195-0.158,0.226-0.156,0.406c0.009,0.235,0.131,1.369,0.254,2.383c0.041,0.337,0.082,0.661,0.119,0.935
		c0.655,0.027,1.299-0.061,1.938-0.185l0.001-0.001c0.642-0.123,1.278-0.284,1.918-0.399c0.797-0.141,1.574-0.472,2.396-0.433
		c0.535,0.07,0.86,0.576,0.96,1.071C24.297,8.813,23.877,9.037,23.45,9.248z"/>
</g>
</svg>
