<?xml version="1.0" encoding="iso-8859-1"?>
<!-- Generator: Adobe Illustrator 13.0.0, SVG Export Plug-In . SVG Version: 6.00 Build 14948)  -->
<svg version="1.2" baseProfile="tiny" id="Calque_1"
	 xmlns="http://www.w3.org/2000/svg" xmlns:xlink="http://www.w3.org/1999/xlink" x="0px" y="0px" width="32.165px"
	 height="25.733px" viewBox="0 0 32.165 25.733" xml:space="preserve">
<g id="Chemical">
	<g>
		<path d="M0,0h32.165L16.632,24.917l-0.51,0.815L0,0L0,0z M16.122,24.602l0.508-0.32L16.122,24.602L16.122,24.602z"/>
		<polygon fill="#FFFFFF" points="16.12,23.468 30.001,1.199 2.167,1.199 16.12,23.468 		"/>
	</g>
	<path id="Symbol_46_" d="M18.454,8.142l-0.791,0.652l0.754,1.154h-4.291l-0.12,0.156l0.6-0.896l-0.809-0.434l-2.342,3.507
		l-0.007,0.012c-0.266,0.443-0.397,0.896-0.397,1.314v0.005c0,0.426,0.139,0.821,0.411,1.11c0.274,0.289,0.676,0.456,1.136,0.453
		c0.037,0,0.074,0,0.111-0.002l7.196,0.007c0.481-0.001,0.897-0.146,1.194-0.415c0.297-0.266,0.458-0.652,0.458-1.067V13.69
		c0-0.492-0.205-1.022-0.251-1.181L18.454,8.142z M12.074,5.244c0.075,0.075,0.156,0.16,0.247,0.249
		c0.021,0.022,0.044,0.045,0.067,0.066l1.659,1.631l0.158,0.796c0.179-0.108,0.36-0.22,0.538-0.33L14.61,6.985
		c-0.012-0.059-0.04-0.113-0.083-0.154l-1.726-1.694c-0.021-0.021-0.043-0.04-0.063-0.062c-0.086-0.085-0.165-0.168-0.247-0.25
		c-0.191-0.19-0.389-0.374-0.65-0.508c-0.101-0.052-0.209-0.094-0.327-0.126l1.921-1.922c0.027,0.099,0.063,0.19,0.104,0.275
		c0.118,0.248,0.285,0.439,0.461,0.614c0.13,0.13,0.266,0.252,0.407,0.391l1.754,1.677c0.041,0.037,0.091,0.064,0.145,0.075
		l0.178,0.038c0.051-0.188,0.104-0.38,0.157-0.571L16.51,4.739l-1.692-1.613c-0.146-0.146-0.283-0.271-0.398-0.385
		c-0.157-0.158-0.269-0.293-0.346-0.453c-0.076-0.159-0.126-0.354-0.129-0.653c-0.001-0.12-0.074-0.226-0.185-0.271
		c-0.11-0.046-0.236-0.021-0.32,0.064l-2.773,2.774c-0.085,0.086-0.11,0.213-0.063,0.324c0.046,0.111,0.153,0.183,0.274,0.182
		c0.324-0.003,0.525,0.051,0.695,0.137S11.893,5.062,12.074,5.244z M22.046,2.496l-3.549,1.951l1.375,0.8l-3.389,2.237l5.115-1.79
		l-1.406-1.407L22.046,2.496z"/>
</g>
</svg>
