<?xml version="1.0" encoding="iso-8859-1"?>
<!-- Generator: Adobe Illustrator 13.0.0, SVG Export Plug-In . SVG Version: 6.00 Build 14948)  -->
<svg version="1.2" baseProfile="tiny" id="Calque_1"
	 xmlns="http://www.w3.org/2000/svg" xmlns:xlink="http://www.w3.org/1999/xlink" x="0px" y="0px" width="25.019px"
	 height="25.018px" viewBox="0 0 25.019 25.018" xml:space="preserve">
<g id="Planned_point">
	<g id="XMLID_1_">
		<circle fill="#218E3D" cx="12.509" cy="12.509" r="12.509"/>
		<circle fill="none" stroke="#FFFFFF" stroke-dasharray="3.1" cx="12.509" cy="12.509" r="12"/>
	</g>
	<path id="Symbol_37_" fill="#FFFFFF" d="M12.599,8.693c-2.138,0-3.869,1.731-3.869,3.869c0,2.135,1.731,3.867,3.869,3.867
		c2.135,0,3.866-1.731,3.866-3.867C16.465,10.425,14.734,8.693,12.599,8.693z M12.599,15.429c-1.586-0.002-2.867-1.283-2.869-2.867
		c0.002-1.584,1.283-2.865,2.869-2.869c1.581,0.004,2.864,1.285,2.866,2.869C15.463,14.146,14.18,15.427,12.599,15.429z
		 M11.124,19.799h0.974v3.341h1.001v-3.341h0.975l-1.475-2.554L11.124,19.799z M14.073,5.17h-0.975V1.829h-1.001V5.17h-0.974
		l1.475,2.554L14.073,5.17z M5.186,12.062H1.844v1.001h3.342v0.974l2.554-1.475l-2.554-1.475V12.062z M19.815,12.062v-0.975
		l-2.554,1.475l2.554,1.475v-0.974h3.341v-1.001H19.815z"/>
</g>
</svg>
