<?xml version="1.0" encoding="iso-8859-1"?>
<!-- Generator: Adobe Illustrator 13.0.0, SVG Export Plug-In . SVG Version: 6.00 Build 14948)  -->
<svg version="1.2" baseProfile="tiny" id="Calque_1"
	 xmlns="http://www.w3.org/2000/svg" xmlns:xlink="http://www.w3.org/1999/xlink" x="0px" y="0px" width="32.165px"
	 height="25.732px" viewBox="0 0 32.165 25.732" xml:space="preserve">
<g id="Electrecity_failure_1_">
	<g>
		<polygon fill="#FFFFFF" stroke="#FF0000" stroke-width="1.2" points="16.123,24.6 1.084,0.6 31.084,0.6 		"/>
	</g>
	<path fill="#030303" d="M16.137,15.313c0.393,0.198,0.943,0.057,1.125-0.361c-0.494-0.003-0.986,0.008-1.48-0.006
		C15.87,15.094,15.983,15.229,16.137,15.313z M15.1,14.464c0.014,0.181,0.193,0.313,0.369,0.312h2.125
		c0.191,0.003,0.383-0.159,0.373-0.356c0.01-0.547-0.004-1.093,0.008-1.638c-0.959,0-1.918,0.007-2.879-0.003
		C15.106,13.34,15.096,13.902,15.1,14.464z M15.604,8.053h-0.137c0.104,0.373,0.15,0.76,0.244,1.138
		c0.123,0.736,0.305,1.462,0.422,2.199c0.109,0.008,0.219,0.008,0.328,0.006c-0.076-0.267-0.135-0.541-0.217-0.807
		C16.043,9.742,15.801,8.903,15.604,8.053z M13.311,10.387l-3.172,3.473l0.871,1.39L14,12.172c-0.039-0.194-0.057-0.35-0.078-0.41
		C13.817,11.32,13.59,10.866,13.311,10.387z M18.27,3.808c-0.338-0.155-0.695-0.268-1.063-0.331
		c-0.855-0.132-1.758-0.012-2.529,0.394c-0.545,0.285-1.01,0.72-1.324,1.249c-0.254,0.445-0.412,0.943-0.459,1.454
		c-0.002,0.178-0.004,0.358,0,0.537c0.051,0.485,0.197,0.956,0.398,1.399c0.008,0.022,0.027,0.065,0.037,0.087
		c0.084,0.184,0.182,0.36,0.275,0.537c0.104,0.194,0.221,0.382,0.328,0.573c0.357,0.578,0.68,1.188,0.838,1.853
		c0.057,0.223,0.059,0.456,0.139,0.674c0.061,0.18,0.24,0.313,0.432,0.307c0.793,0.001,1.584,0,2.373,0.001
		c0.162,0.004,0.311-0.086,0.4-0.217c0.012-0.021,0.033-0.063,0.043-0.085c0.074-0.251,0.082-0.516,0.158-0.767
		c0.16-0.635,0.477-1.214,0.818-1.767c0.475-0.803,0.945-1.653,1.031-2.599c0.049-0.592-0.064-1.19-0.318-1.725
		C19.532,4.691,18.952,4.137,18.27,3.808z M19.042,9.001c-0.363,0.668-0.795,1.304-1.047,2.025
		c-0.129,0.343-0.191,0.703-0.248,1.063c-0.809,0-1.617,0.012-2.426-0.006c-0.061-0.38-0.133-0.761-0.27-1.122
		c-0.285-0.75-0.742-1.416-1.113-2.123c-0.314-0.586-0.57-1.226-0.594-1.896c-0.033-0.566,0.121-1.137,0.416-1.619
		c0.359-0.584,0.924-1.028,1.568-1.259c0.971-0.356,2.098-0.259,2.984,0.273c0.457,0.281,0.842,0.68,1.09,1.157
		c0.25,0.467,0.352,1.003,0.314,1.527C19.67,7.729,19.381,8.39,19.042,9.001z M22.545,1.154l-2.711,2.711
		c0.328,0.328,0.605,0.711,0.805,1.144c0.059,0.125,0.088,0.261,0.135,0.391l4.176-4.245H22.545z M16.602,11.397
		c0.109,0.001,0.221,0,0.33-0.002c0.168-0.949,0.373-1.894,0.559-2.841c0.037-0.169,0.057-0.342,0.111-0.506
		c-0.033-0.001-0.098-0.002-0.129-0.003C17.174,9.161,16.907,10.284,16.602,11.397z M17.512,7.436
		c-0.043-0.018-0.084-0.034-0.127-0.052c-0.014-0.049-0.021-0.1-0.049-0.144c-0.053-0.005-0.115-0.016-0.168,0.008
		c-0.016,0.04-0.031,0.082-0.047,0.123c-0.033,0.021-0.07,0.042-0.104,0.063c-0.035-0.02-0.072-0.04-0.107-0.059
		c-0.018-0.051-0.039-0.102-0.059-0.151c-0.053,0.001-0.104,0.003-0.158,0.004c-0.018,0.048-0.037,0.097-0.057,0.146
		c-0.035,0.02-0.07,0.04-0.107,0.063c-0.09-0.04-0.131-0.121-0.162-0.209c-0.051,0.001-0.105,0.001-0.158,0.003
		c-0.018,0.051-0.035,0.103-0.053,0.154c-0.037,0.017-0.074,0.032-0.113,0.049c-0.045-0.031-0.09-0.063-0.135-0.096l-0.004-0.1
		l-0.168-0.006c-0.023,0.086-0.064,0.199-0.174,0.19c-0.1-0.003-0.129-0.108-0.156-0.188c-0.057,0-0.115,0.001-0.174,0.004
		c-0.037,0.17,0.092,0.335,0.254,0.378c0.113,0.043,0.229-0.021,0.326-0.075c0.072,0.033,0.141,0.087,0.227,0.096
		c0.098-0.004,0.184-0.058,0.27-0.1c0.129,0.135,0.326,0.111,0.467,0.004c0.139,0.111,0.338,0.125,0.473-0.004
		c0.094,0.053,0.205,0.115,0.318,0.081c0.172-0.036,0.293-0.207,0.271-0.383c-0.061,0-0.121-0.001-0.182-0.001
		C17.641,7.324,17.592,7.395,17.512,7.436z"/>
</g>
</svg>
