<?xml version="1.0" encoding="iso-8859-1"?>
<!-- Generator: Adobe Illustrator 13.0.0, SVG Export Plug-In . SVG Version: 6.00 Build 14948)  -->
<svg version="1.2" baseProfile="tiny" id="Calque_1"
	 xmlns="http://www.w3.org/2000/svg" xmlns:xlink="http://www.w3.org/1999/xlink" x="0px" y="0px" width="32.165px"
	 height="25.732px" viewBox="0 0 32.165 25.732" xml:space="preserve">
<g id="Maritime">
	<g>
		<polygon fill="#FFFFFF" stroke="#FF0000" stroke-width="1.2" points="16.123,24.6 1.084,0.6 31.084,0.6 		"/>
	</g>
	<path d="M23.79,9.07c-1.445,0.092-1.445,1.266-2.348,1.173c-0.406,0.042-0.631-0.176-0.885-0.433l0.004-0.557l-1.229-0.911
		c0.092-0.066,0.936-0.682,1.201-1.026c0.086-0.112,0.125-0.206,0.078-0.26c-0.197-0.229-0.756-0.492-0.756-0.492l-1.863,0.785
		l-0.234-0.174c0,0,0.789-0.559,1.07-0.923c0.086-0.112,0.125-0.206,0.078-0.26C18.709,5.763,18.151,5.5,18.151,5.5l-1.869,0.788
		c0,0-1.258-0.867-2.102-1.411c-0.58,0.163-1.383,0.52-1.809,0.716c-1.123-0.635-2.25-1.259-3.4-1.843
		C9.364,5.45,9.774,6.15,10.104,7.866l3.092,1.703c-0.385,0.345-0.609,0.729-1.141,0.674c-0.902,0.093-0.902-1.081-2.348-1.173
		C8.754,9.13,8.43,9.663,8.06,9.992c-0.077,0.068-0.1,0.268-0.087,0.474l0.314,0.501c0.587-0.37,0.773-0.954,1.42-0.888
		c0.904-0.093,0.904,1.082,2.348,1.174c1.443-0.092,1.443-1.267,2.348-1.174c0.902-0.093,0.902,1.082,2.346,1.174
		c1.445-0.092,1.445-1.267,2.346-1.174c0.904-0.093,0.904,1.082,2.348,1.174c1.445-0.092,1.445-1.267,2.348-1.174
		c0.25-0.025,0.426,0.058,0.588,0.177l0.491-0.788C24.616,9.27,24.296,9.102,23.79,9.07z M15.223,9.292
		c-0.135-0.072-0.299-0.126-0.484-0.166c0.063-0.462,0.273-0.538,0.635-0.215C15.352,9.113,15.297,9.227,15.223,9.292z
		 M17.018,10.225c-0.082,0.018-0.168,0.028-0.27,0.018c-0.066,0.007-0.119-0.006-0.176-0.012c-0.008-0.007-0.018-0.008-0.025-0.017
		c-0.35-0.287,0.107-0.873,0.467-0.586C17.264,9.788,17.192,10.076,17.018,10.225z"/>
</g>
</svg>
