<?xml version="1.0" encoding="iso-8859-1"?>
<!-- Generator: Adobe Illustrator 13.0.0, SVG Export Plug-In . SVG Version: 6.00 Build 14948)  -->
<svg version="1.2" baseProfile="tiny" id="Calque_1"
	 xmlns="http://www.w3.org/2000/svg" xmlns:xlink="http://www.w3.org/1999/xlink" x="0px" y="0px" width="32.165px"
	 height="25.732px" viewBox="0 0 32.165 25.732" xml:space="preserve">
<g id="Nuclear">
	<g>
		<polygon fill="#FFFFFF" stroke="#FF0000" stroke-width="1.2" points="16.123,24.6 1.084,0.6 31.084,0.6 		"/>
	</g>
	<path id="Symbol_47_" d="M15.467,10.161l-2.691,4.394c2.175,1.288,4.962,1.396,7.306,0.043l-2.576-4.46
		C16.854,10.514,16.083,10.497,15.467,10.161z M18.522,8.011l5.151,0.134c0.028-2.527-1.271-4.995-3.615-6.349l-2.575,4.461
		C18.134,6.633,18.505,7.31,18.522,8.011z M15.286,6.503l-2.46-4.527C10.624,3.214,9.136,5.574,9.136,8.28h5.149
		C14.286,7.528,14.686,6.869,15.286,6.503z M16.427,9.725c0.799,0,1.446-0.647,1.446-1.445s-0.647-1.445-1.446-1.445
		c-0.798,0-1.445,0.647-1.445,1.445S15.629,9.725,16.427,9.725z"/>
</g>
</svg>
