<?xml version="1.0"?>
<!DOCTYPE svg PUBLIC "-//W3C//DTD SVG 1.1//EN" "http://www.w3.org/Graphics/SVG/1.1/DTD/svg11.dtd">
<svg xmlns="http://www.w3.org/2000/svg" xmlns:xl="http://www.w3.org/1999/xlink" version="1.1" viewBox="-3 1 204 127" width="17pc" height="127pt"><metadata xmlns:dc="http://purl.org/dc/elements/1.1/"><dc:date>2015-02-11 16:00Z</dc:date><!-- Produced by OmniGraffle Professional 5.4.4 --></metadata><defs><font-face font-family="Helvetica" font-size="30" units-per-em="1000" underline-position="-75.683594" underline-thickness="49.316406" slope="0" x-height="522.94922" cap-height="717.28516" ascent="770.01953" descent="-229.98045" font-weight="500"><font-face-src><font-face-name name="Helvetica"/></font-face-src></font-face></defs><g stroke="none" stroke-opacity="1" stroke-dasharray="none" fill="none" fill-opacity="1"><title>Canevas 1</title><g><title>Calque 1</title><rect x="10" y="14" width="178" height="101" fill="white"/><rect x="10" y="14" width="178" height="101" stroke="black" stroke-linecap="round" stroke-linejoin="round" stroke-width="5"/><text transform="translate(40.5 46.5)" fill="black"><tspan font-family="Helvetica" font-size="30" font-weight="500" x=".104003906" y="29" textLength="20.009766">V</tspan><tspan font-family="Helvetica" font-size="30" font-weight="500" x="18.473145" y="29" textLength="98.42285">odovod</tspan></text></g></g></svg>
