<?xml version="1.0"?>
<!DOCTYPE svg PUBLIC "-//W3C//DTD SVG 1.1//EN" "http://www.w3.org/Graphics/SVG/1.1/DTD/svg11.dtd">
<svg xmlns="http://www.w3.org/2000/svg" xmlns:xl="http://www.w3.org/1999/xlink" version="1.1" viewBox="-6 -5 214 186" width="214pt" height="186pt"><metadata xmlns:dc="http://purl.org/dc/elements/1.1/"><dc:date>2014-11-04 15:46Z</dc:date><!-- Produced by OmniGraffle Professional 5.4.4 --></metadata><defs><font-face font-family="Helvetica" font-size="49" units-per-em="1000" underline-position="-75.683594" underline-thickness="49.316406" slope="0" x-height="522.94922" cap-height="717.28516" ascent="770.01953" descent="-229.98047" font-weight="500"><font-face-src><font-face-name name="Helvetica"/></font-face-src></font-face></defs><g stroke="none" stroke-opacity="1" stroke-dasharray="none" fill="none" fill-opacity="1"><title>Canvas 1</title><rect fill="white" width="559" height="783"/><g><title>Layer 1</title><path d="M 42.095487 88.727423 L 71.595487 38.727423 L 130.59549 38.727423 L 160.09549 88.727423 L 130.59549 138.72742 L 71.595487 138.72742 Z" fill="white"/><path d="M 42.095487 88.727423 L 71.595487 38.727423 L 130.59549 38.727423 L 160.09549 88.727423 L 130.59549 138.72742 L 71.595487 138.72742 Z" stroke="black" stroke-linecap="round" stroke-linejoin="round" stroke-width="3"/><text transform="translate(47.095487 59.227423)" fill="black"><tspan font-family="Helvetica" font-size="49" font-weight="500" fill="black" x="40.374268" y="48" textLength="27.251465">1</tspan></text><path d="M 131.44637 39.158765 L 131.44637 39.158765 L 148.301505 17.338311 L 145.70801 15.334974 L 153.44111 10.684642 L 150.895 19.341649 L 148.301505 17.338311 Z" fill="black"/><path d="M 131.44637 39.158765 L 131.44637 39.158765 L 148.301505 17.338311 L 145.70801 15.334974 L 153.44111 10.684642 L 150.895 19.341649 L 148.301505 17.338311 Z" stroke="black" stroke-linecap="butt" stroke-linejoin="round" stroke-width="1"/><path d="M 71.918128 138.65592 L 71.918128 138.65592 L 55.6927 160.94859 L 58.34232 162.87708 L 50.74511 167.74625 L 53.043076 159.0201 L 55.6927 160.94859 Z" fill="black"/><path d="M 71.918128 138.65592 L 71.918128 138.65592 L 55.6927 160.94859 L 58.34232 162.87708 L 50.74511 167.74625 L 53.043076 159.0201 L 55.6927 160.94859 Z" stroke="black" stroke-linecap="butt" stroke-linejoin="round" stroke-width="1"/><path d="M 42.034518 89.36366 L 42.034518 89.36366 L 14.467061 89.876624 L 14.528029 93.15319 L 6.0609687 90.03304 L 14.406092 86.60006 L 14.467061 89.876624 Z" fill="black"/><path d="M 42.034518 89.36366 L 42.034518 89.36366 L 14.467061 89.876624 L 14.528029 93.15319 L 6.0609687 90.03304 L 14.406092 86.60006 L 14.467061 89.876624 Z" stroke="black" stroke-linecap="butt" stroke-linejoin="round" stroke-width="1"/><path d="M 130.355346 138.84337 L 130.355346 138.84337 L 148.1579 159.89799 L 145.65542 162.01393 L 153.58639 166.31813 L 150.66037 157.78204 L 148.1579 159.89799 Z" fill="black"/><path d="M 130.355346 138.84337 L 130.355346 138.84337 L 148.1579 159.89799 L 145.65542 162.01393 L 153.58639 166.31813 L 150.66037 157.78204 L 148.1579 159.89799 Z" stroke="black" stroke-linecap="butt" stroke-linejoin="round" stroke-width="1"/><path d="M 160.15646 89.033045 L 160.15646 89.033045 L 187.72391 88.520083 L 187.78488 91.796647 L 196.13 88.363667 L 187.66294 85.24352 L 187.72391 88.520083 Z" fill="black"/><path d="M 160.15646 89.033045 L 160.15646 89.033045 L 187.72391 88.520083 L 187.78488 91.796647 L 196.13 88.363667 L 187.66294 85.24352 L 187.72391 88.520083 Z" stroke="black" stroke-linecap="butt" stroke-linejoin="round" stroke-width="1"/><path d="M 71.475 38.939172 L 71.475 38.939172 L 56.4295 15.833745 L 59.175724 14.0454935 L 51.841705 8.788251 L 53.683277 17.621996 L 56.4295 15.833745 Z" fill="black"/><path d="M 71.475 38.939172 L 71.475 38.939172 L 56.4295 15.833745 L 59.175724 14.0454935 L 51.841705 8.788251 L 53.683277 17.621996 L 56.4295 15.833745 Z" stroke="black" stroke-linecap="butt" stroke-linejoin="round" stroke-width="1"/></g></g></svg>
