<?xml version="1.0"?>
<!DOCTYPE svg PUBLIC "-//W3C//DTD SVG 1.1//EN" "http://www.w3.org/Graphics/SVG/1.1/DTD/svg11.dtd">
<svg xmlns="http://www.w3.org/2000/svg" xmlns:xl="http://www.w3.org/1999/xlink" version="1.1" viewBox="3 1 155 117" width="155pt" height="117pt"><metadata xmlns:dc="http://purl.org/dc/elements/1.1/"><dc:date>2015-03-10 11:27Z</dc:date><!-- Produced by OmniGraffle Professional 5.4.4 --></metadata><defs><font-face font-family="Helvetica" font-size="30" units-per-em="1000" underline-position="-75.683594" underline-thickness="49.316406" slope="0" x-height="522.94922" cap-height="717.28516" ascent="770.01953" descent="-229.98045" font-weight="500"><font-face-src><font-face-name name="Helvetica"/></font-face-src></font-face></defs><g stroke="none" stroke-opacity="1" stroke-dasharray="none" fill="none" fill-opacity="1"><title>Canevas 1</title><g><title>Calque 1</title><rect x="16" y="14" width="129" height="91" fill="white"/><rect x="16" y="14" width="129" height="91" stroke="black" stroke-linecap="round" stroke-linejoin="round" stroke-width="5"/><text transform="translate(29 25.5)" fill="black"><tspan font-family="Helvetica" font-size="30" font-weight="500" x=".29345703" y="29" textLength="108.413086">Blokada</tspan><tspan font-family="Helvetica" font-size="30" font-weight="500" x="18.647949" y="65" textLength="71.7041">ceste</tspan></text></g></g></svg>
