<?xml version="1.0" encoding="iso-8859-1"?>
<!-- Generator: Adobe Illustrator 13.0.0, SVG Export Plug-In . SVG Version: 6.00 Build 14948)  -->
<svg version="1.2" baseProfile="tiny" id="Calque_1"
	 xmlns="http://www.w3.org/2000/svg" xmlns:xlink="http://www.w3.org/1999/xlink" x="0px" y="0px" width="25px" height="25px"
	 viewBox="0 0 25 25" xml:space="preserve">
<g id="Division_command">
	<g>
		<g>
			<circle fill="#218E3D" cx="12.5" cy="12.5" r="12"/>
			<path fill="#FFFFFF" d="M0,12.5C0.001,5.596,5.598,0,12.501,0l0,0C19.404,0,25,5.596,25,12.5l0,0
				c0,6.902-5.596,12.498-12.499,12.5l0,0C5.598,24.998,0.001,19.402,0,12.5L0,12.5z M1,12.5c0.012,6.353,5.15,11.487,11.501,11.499
				l0,0C18.852,23.987,23.989,18.853,24,12.5l0,0C23.989,6.148,18.852,1.011,12.501,0.999l0,0C6.15,1.011,1.013,6.148,1,12.5L1,12.5
				z"/>
		</g>
	</g>
	<path id="Symbol_11_" fill="#FFFFFF" d="M19.992,5.259c-2.051,1.045-4.579,0.738-6.745,0.222c-2.245-0.35-4.68-0.577-6.772,0.487
		C6.46,8.781,6.512,11.592,6.445,14.4c1.92-0.231,3.876-0.974,5.805-0.35c2.033,0.411,4.089,0.879,6.169,0.548
		c0.558-0.175,1.12-0.335,1.683-0.478C20.102,11.167,20.318,8.193,19.992,5.259z M4.673,6.114
		c-0.048,4.798,0.104,9.601,0.142,14.398c0.284-0.014,0.852-0.038,1.14-0.047c0-4.779,0.033-9.557-0.033-14.341
		C5.646,6.124,4.947,6.119,4.673,6.114z"/>
</g>
</svg>
