<?xml version="1.0"?>
<!DOCTYPE svg PUBLIC "-//W3C//DTD SVG 1.1//EN" "http://www.w3.org/Graphics/SVG/1.1/DTD/svg11.dtd">
<svg xmlns="http://www.w3.org/2000/svg" xmlns:xl="http://www.w3.org/1999/xlink" version="1.1" viewBox="-1 -6 398 275" width="398pt" height="275pt"><metadata xmlns:dc="http://purl.org/dc/elements/1.1/"><dc:date>2014-11-19 12:37Z</dc:date><!-- Produced by OmniGraffle Professional 5.4.4 --></metadata><defs></defs><g stroke="none" stroke-opacity="1" stroke-dasharray="none" fill="none" fill-opacity="1"><title>Canevas 1</title><rect fill="white" width="559" height="783"/><g><title>Calque 1</title><ellipse cx="198" cy="21.5" rx="16.000025" ry="16.500027" fill="blue"/><ellipse cx="198" cy="21.5" rx="16.000025" ry="16.500027" stroke="blue" stroke-linecap="round" stroke-linejoin="round" stroke-width="1"/><ellipse cx="141.5" cy="21.5" rx="16.000025" ry="16.500027" fill="blue"/><ellipse cx="141.5" cy="21.5" rx="16.000025" ry="16.500027" stroke="blue" stroke-linecap="round" stroke-linejoin="round" stroke-width="1"/><ellipse cx="254.5" cy="21.5" rx="16.000025" ry="16.500027" fill="blue"/><ellipse cx="254.5" cy="21.5" rx="16.000025" ry="16.500027" stroke="blue" stroke-linecap="round" stroke-linejoin="round" stroke-width="1"/><rect x="13" y="48" width="370" height="158.26682" fill="white"/><rect x="13" y="48" width="370" height="158.26682" stroke="blue" stroke-linecap="round" stroke-linejoin="miter" stroke-width="8"/><rect x="315.39203" y="84.89798" width="65.1495" height="84.47085" fill="white"/><rect x="315.39203" y="84.89798" width="65.1495" height="84.47085" stroke="blue" stroke-linecap="round" stroke-linejoin="miter" stroke-width="8"/><ellipse cx="347.96678" cy="126.72478" rx="19.667805" ry="18.724806" fill="blue"/><ellipse cx="347.96678" cy="126.72478" rx="19.667805" ry="18.724806" stroke="blue" stroke-linecap="round" stroke-linejoin="round" stroke-width="1"/><rect x="13" y="207.19507" width="370" height="47.804933" fill="white"/><rect x="13" y="207.19507" width="370" height="47.804933" stroke="blue" stroke-linecap="round" stroke-linejoin="miter" stroke-width="8"/><rect x="144.5625" y="92" width="55" height="1" fill="white"/><rect x="144.5625" y="92" width="55" height="1" stroke="blue" stroke-linecap="round" stroke-linejoin="miter" stroke-width="3"/><rect x="172" y="95.19507" width=".125" height="12.8049326" fill="white"/><rect x="172" y="95.19507" width=".125" height="12.8049326" stroke="blue" stroke-linecap="round" stroke-linejoin="miter" stroke-width="3"/><ellipse cx="249.93854" cy="136.2926" rx="27.000044" ry="23.902504" fill="white"/><ellipse cx="249.93854" cy="136.2926" rx="27.000044" ry="23.902504" stroke="blue" stroke-linecap="round" stroke-linejoin="round" stroke-width="5"/><rect x="213.08804" y="110.19507" width="38.607973" height="56" fill="white"/><rect x="251.69601" y="137.19507" width="55" height="29" fill="white"/><rect x="121.303986" y="112.390134" width="130.39203" height="1.125" fill="white"/><rect x="121.303986" y="112.390134" width="130.39203" height="1.125" stroke="blue" stroke-linecap="round" stroke-linejoin="miter" stroke-width="4"/></g></g></svg>
