<?xml version="1.0"?>
<!DOCTYPE svg PUBLIC "-//W3C//DTD SVG 1.1//EN" "http://www.w3.org/Graphics/SVG/1.1/DTD/svg11.dtd">
<svg xmlns="http://www.w3.org/2000/svg" xmlns:xl="http://www.w3.org/1999/xlink" version="1.1" viewBox="-4 -1 340 211" width="340pt" height="211pt"><metadata xmlns:dc="http://purl.org/dc/elements/1.1/"><dc:date>2015-02-11 16:41Z</dc:date><!-- Produced by OmniGraffle Professional 5.4.4 --></metadata><defs><font-face font-family="Calibri" font-size="30" panose-1="2 15 7 2 3 4 4 3 2 4" units-per-em="1000" underline-position="-87.402344" underline-thickness="90.82031" slope="0" x-height="468.74997" cap-height="631.83594" ascent="952.1484" descent="-268.55469" font-weight="bold"><font-face-src><font-face-name name="Calibri-Bold"/></font-face-src></font-face></defs><g stroke="none" stroke-opacity="1" stroke-dasharray="none" fill="none" fill-opacity="1"><title>Canevas 1</title><g><title>Calque 1</title><rect x="9" y="12" width="314" height="185" fill="white"/><rect x="9" y="12" width="314" height="185" stroke="black" stroke-linecap="round" stroke-linejoin="round" stroke-width="5"/><rect x="38" y="58.5" width="256" height="92" fill="white"/><text transform="translate(43 49)" fill="black"><tspan font-family="Calibri" font-size="30" font-weight="bold" x="48.446777" y="29" textLength="155.88867">Samochód z </tspan><tspan font-family="Calibri" font-size="30" font-weight="bold" x="65.1167" y="66" textLength="22.631836">śr</tspan><tspan font-family="Calibri" font-size="30" font-weight="bold" x="87.382324" y="66" textLength="100.283203">odkiem </tspan><tspan font-family="Calibri" font-size="30" font-weight="bold" x="26.876953" y="103" textLength="103.256836">pianotw</tspan><tspan font-family="Calibri" font-size="30" font-weight="bold" x="129.884766" y="103" textLength="26.791992">ór</tspan><tspan font-family="Calibri" font-size="30" font-weight="bold" x="156.25195" y="103" textLength="24.477539">cz</tspan><tspan font-family="Calibri" font-size="30" font-weight="bold" x="180.50977" y="103" textLength="38.613281">ym</tspan></text></g></g></svg>
