<?xml version="1.0"?>
<!DOCTYPE svg PUBLIC "-//W3C//DTD SVG 1.1//EN" "http://www.w3.org/Graphics/SVG/1.1/DTD/svg11.dtd">
<svg xmlns="http://www.w3.org/2000/svg" xmlns:xl="http://www.w3.org/1999/xlink" version="1.1" viewBox="-3 3 307 183" width="307pt" height="183pt"><metadata xmlns:dc="http://purl.org/dc/elements/1.1/"><dc:date>2015-03-09 16:38Z</dc:date><!-- Produced by OmniGraffle Professional 5.4.4 --></metadata><defs><font-face font-family="Calibri" font-size="30" panose-1="2 15 7 2 3 4 4 3 2 4" units-per-em="1000" underline-position="-87.402344" underline-thickness="90.82031" slope="0" x-height="468.74997" cap-height="631.83594" ascent="952.1484" descent="-268.55469" font-weight="bold"><font-face-src><font-face-name name="Calibri-Bold"/></font-face-src></font-face></defs><g stroke="none" stroke-opacity="1" stroke-dasharray="none" fill="none" fill-opacity="1"><title>Canevas 1</title><rect fill="white" width="559" height="783"/><g><title>Calque 1</title><rect x="10" y="16" width="281" height="157" fill="white"/><rect x="10" y="16" width="281" height="157" stroke="black" stroke-linecap="round" stroke-linejoin="round" stroke-width="5"/><rect x="22.5" y="45.5" width="256" height="92" fill="white"/><text transform="translate(27.5 17.5)" fill="black"><tspan font-family="Calibri" font-size="30" font-weight="bold" x="86.59131" y="29" textLength="62.563477">Punk</tspan><tspan font-family="Calibri" font-size="30" font-weight="bold" x="149.0083" y="29" textLength="10.4003906">t</tspan><tspan font-family="Calibri" font-size="30" font-weight="bold" x="63.563965" y="66" textLength="24.477539">cz</tspan><tspan font-family="Calibri" font-size="30" font-weight="bold" x="87.484863" y="66" textLength="94.95117">erpania</tspan><tspan font-family="Calibri" font-size="30" font-weight="bold" x="85.338867" y="103" textLength="29.135742"> w</tspan><tspan font-family="Calibri" font-size="30" font-weight="bold" x="114.225586" y="103" textLength="46.435547">ody</tspan><tspan font-family="Calibri" font-size="30" font-weight="bold" x="64.289062" y="140" textLength="21.00586"> g</tspan><tspan font-family="Calibri" font-size="30" font-weight="bold" x="84.782227" y="140" textLength="74.72168">aśnicz</tspan><tspan font-family="Calibri" font-size="30" font-weight="bold" x="158.94727" y="140" textLength="22.763672">ej</tspan></text></g></g></svg>
