<?xml version="1.0"?>
<!DOCTYPE svg PUBLIC "-//W3C//DTD SVG 1.1//EN" "http://www.w3.org/Graphics/SVG/1.1/DTD/svg11.dtd">
<svg xmlns="http://www.w3.org/2000/svg" xmlns:xl="http://www.w3.org/1999/xlink" version="1.1" viewBox="1 -1 561 156" width="561pt" height="13pc"><metadata xmlns:dc="http://purl.org/dc/elements/1.1/"><dc:date>2014-11-20 12:30Z</dc:date><!-- Produced by OmniGraffle Professional 5.4.4 --></metadata><defs><font-face font-family="Helvetica" font-size="40" units-per-em="1000" underline-position="-75.683594" underline-thickness="49.316406" slope="0" x-height="532.22656" cap-height="719.72656" ascent="770.01953" descent="-229.98047" font-weight="bold"><font-face-src><font-face-name name="Helvetica-Bold"/></font-face-src></font-face><font-face font-family="Helvetica" font-size="36" units-per-em="1000" underline-position="-75.683594" underline-thickness="49.316406" slope="0" x-height="532.22656" cap-height="719.72656" ascent="770.01953" descent="-229.98047" font-weight="bold"><font-face-src><font-face-name name="Helvetica-Bold"/></font-face-src></font-face></defs><g stroke="none" stroke-opacity="1" stroke-dasharray="none" fill="none" fill-opacity="1"><title>Canevas 1</title><rect fill="white" width="559" height="783"/><g><title>Calque 1</title><ellipse cx="217" cy="106" rx="39.00006" ry="36.000057" fill="white"/><ellipse cx="217" cy="106" rx="39.00006" ry="36.000057" stroke="blue" stroke-linecap="round" stroke-linejoin="round" stroke-width="6"/><text transform="translate(190.8 82)" fill="blue"><tspan font-family="Helvetica" font-size="40" font-weight="bold" fill="blue" x="15.076953" y="39" textLength="22.246094">3</tspan></text><path d="M 18 109 L 73 95 L 122 103 L 175.02414 104.674446" stroke="blue" stroke-linecap="round" stroke-linejoin="round" stroke-width="7"/><path d="M 256 107.5 L 319 96 L 404 117 L 545 97" stroke="blue" stroke-linecap="round" stroke-linejoin="round" stroke-width="7"/><text transform="translate(295 8)" fill="blue"><tspan font-family="Helvetica" font-size="36" font-weight="bold" fill="blue" x=".48339844" y="35" textLength="20.021484">1</tspan><tspan font-family="Helvetica" font-size="36" font-weight="bold" fill="blue" x="20.504883" y="35" textLength="10.001953">,</tspan><tspan font-family="Helvetica" font-size="36" font-weight="bold" fill="blue" x="30.506836" y="35" textLength="86.009766">5 KM</tspan></text><path d="M 289 92 L 319 128 L 354 85 L 395 131 L 427 84 L 462 131 L 493 81 L 537 131" stroke="lime" stroke-linecap="round" stroke-linejoin="round" stroke-width="3"/></g></g></svg>
