<?xml version="1.0"?>
<!DOCTYPE svg PUBLIC "-//W3C//DTD SVG 1.1//EN" "http://www.w3.org/Graphics/SVG/1.1/DTD/svg11.dtd">
<svg xmlns="http://www.w3.org/2000/svg" xmlns:xl="http://www.w3.org/1999/xlink" version="1.1" viewBox="-8 -8 491 495" width="491pt" height="495pt"><metadata xmlns:dc="http://purl.org/dc/elements/1.1/"><dc:date>2014-11-20 12:54Z</dc:date><!-- Produced by OmniGraffle Professional 5.4.4 --></metadata><defs><font-face font-family="Helvetica" font-size="33" units-per-em="1000" underline-position="-75.683594" underline-thickness="49.316406" slope="0" x-height="532.22656" cap-height="719.72656" ascent="770.01953" descent="-229.98047" font-weight="bold"><font-face-src><font-face-name name="Helvetica-Bold"/></font-face-src></font-face><font-face font-family="Helvetica" font-size="58" units-per-em="1000" underline-position="-75.683594" underline-thickness="49.316406" slope="0" x-height="532.22656" cap-height="719.72656" ascent="770.01953" descent="-229.98047" font-weight="bold"><font-face-src><font-face-name name="Helvetica-Bold"/></font-face-src></font-face></defs><g stroke="none" stroke-opacity="1" stroke-dasharray="none" fill="none" fill-opacity="1"><title>Canevas 1</title><rect fill="white" width="559" height="783"/><g><title>Calque 1</title><path d="M 401.19504 74.39075 C 491.6018 165.5781 491.6018 313.4219 401.19504 404.60925 C 310.78873 495.79707 164.21127 495.79707 73.80496 404.60925 C -16.601808 313.4219 -16.601808 165.5781 73.80496 74.39075 C 164.21127 -16.797072 310.78873 -16.797072 401.19504 74.39075" fill="white"/><path d="M 401.19504 74.39075 C 491.6018 165.5781 491.6018 313.4219 401.19504 404.60925 C 310.78873 495.79707 164.21127 495.79707 73.80496 404.60925 C -16.601808 313.4219 -16.601808 165.5781 73.80496 74.39075 C 164.21127 -16.797072 310.78873 -16.797072 401.19504 74.39075" stroke="black" stroke-linecap="round" stroke-linejoin="round" stroke-width="8"/><text transform="translate(57.3 159.5)" fill="black"><tspan font-family="Helvetica" font-size="33" font-weight="bold" x="141.70537" y="152" textLength="76.98926">SLRt</tspan></text><ellipse cx="114.3331" cy="376.5" rx="16.000025" ry="16.500027" fill="white"/><ellipse cx="114.3331" cy="376.5" rx="16.000025" ry="16.500027" stroke="black" stroke-linecap="round" stroke-linejoin="round" stroke-width="7"/><rect x="74" y="169" width="327" height="174" fill="white"/><rect x="74" y="169" width="327" height="174" stroke="black" stroke-linecap="round" stroke-linejoin="miter" stroke-width="8"/><text transform="translate(79 186)" fill="black"><tspan font-family="Helvetica" font-size="58" font-weight="bold" x="90.842773" y="127" textLength="135.31445">SLRt</tspan></text><ellipse cx="360.66689" cy="376.5" rx="16.000025" ry="16.500027" fill="white"/><ellipse cx="360.66689" cy="376.5" rx="16.000025" ry="16.500027" stroke="black" stroke-linecap="round" stroke-linejoin="round" stroke-width="7"/><ellipse cx="237.5" cy="166.5" rx="163.50026" ry="58.500095" fill="white"/><ellipse cx="237.5" cy="166.5" rx="163.50026" ry="58.500095" stroke="black" stroke-linecap="round" stroke-linejoin="round" stroke-width="7"/><rect x="67" y="100" width="344" height="72" fill="white"/></g></g></svg>
