<?xml version="1.0" encoding="UTF-8" standalone="no"?>
<!-- Created with Inkscape (http://www.inkscape.org/) -->
<svg
   xmlns:svg="http://www.w3.org/2000/svg"
   xmlns="http://www.w3.org/2000/svg"
   version="1.0"
   width="428.73242"
   height="599.96972"
   viewBox="-2 -2 218.36621 303.98486">
	<g
   id="Ebene_1">
		<g
   id="g1327">
			<path
   d="M 1.1689453,15.442871 L 9.7939453,24.067871 L 18.918945,22.567871 C 17.067383,25.88623 15.231445,28.692871 15.231445,36.005371 C 15.231445,43.317871 21.043945,48.067871 27.918945,48.067871 C 34.793945,48.067871 41.418945,42.692871 41.418945,34.692871 C 41.418945,26.692871 34.356445,19.630371 34.356445,19.630371 L 43.668945,18.192871 L 53.543945,3.8178711 L 63.293945,15.942871 L 72.418945,15.942871 C 72.418945,15.942871 67.668945,21.942871 67.668945,29.317871 C 67.668945,36.692871 72.793945,41.567871 80.293945,40.942871 C 87.793945,40.317871 92.668945,37.067871 92.668945,28.567871 C 92.668945,20.067871 87.043945,14.442871 87.043945,14.442871 L 97.043945,13.942871 L 107.16895,1.5678711 L 118.16895,14.692871 L 126.41895,15.317871 C 126.41895,15.317871 120.91895,21.317871 120.91895,29.192871 C 120.91895,37.067871 128.54395,41.317871 134.91895,41.317871 C 141.29395,41.317871 147.16895,38.067871 147.16895,29.692871 C 147.16895,21.317871 141.04395,15.942871 141.04395,15.942871 L 150.79395,16.692871 L 161.16895,4.8178711 L 170.91895,19.317871 L 179.66895,21.067871 C 179.66895,21.067871 173.66895,25.817871 173.66895,34.692871 C 173.66895,43.567871 180.41895,47.817871 188.04395,47.817871 C 195.66895,47.817871 199.04395,41.817871 199.04395,36.567871 C 199.04395,31.317871 194.54395,23.442871 194.54395,23.442871 L 203.91895,24.942871 L 213.16895,15.692871 L 209.62793,63.151367 L 202.29395,205.48486 C 202.29395,205.48486 196.29395,298.98486 106.79395,298.98486 C 17.293945,298.98486 13.293945,205.48486 13.293945,205.48486 L 4.2939453,63.817871 L 1.1689453,15.442871 z "
   style="fill:#f9dd16"
   id="path1329" />
			<path
   d="M 1.1689453,15.442871 L 9.7939453,24.067871 L 18.918945,22.567871 C 17.067383,25.88623 15.231445,28.692871 15.231445,36.005371 C 15.231445,43.317871 21.043945,48.067871 27.918945,48.067871 C 34.793945,48.067871 41.418945,42.692871 41.418945,34.692871 C 41.418945,26.692871 34.356445,19.630371 34.356445,19.630371 L 43.668945,18.192871 L 53.543945,3.8178711 L 63.293945,15.942871 L 72.418945,15.942871 C 72.418945,15.942871 67.668945,21.942871 67.668945,29.317871 C 67.668945,36.692871 72.793945,41.567871 80.293945,40.942871 C 87.793945,40.317871 92.668945,37.067871 92.668945,28.567871 C 92.668945,20.067871 87.043945,14.442871 87.043945,14.442871 L 97.043945,13.942871 L 107.16895,1.5678711 L 118.16895,14.692871 L 126.41895,15.317871 C 126.41895,15.317871 120.91895,21.317871 120.91895,29.192871 C 120.91895,37.067871 128.54395,41.317871 134.91895,41.317871 C 141.29395,41.317871 147.16895,38.067871 147.16895,29.692871 C 147.16895,21.317871 141.04395,15.942871 141.04395,15.942871 L 150.79395,16.692871 L 161.16895,4.8178711 L 170.91895,19.317871 L 179.66895,21.067871 C 179.66895,21.067871 173.66895,25.817871 173.66895,34.692871 C 173.66895,43.567871 180.41895,47.817871 188.04395,47.817871 C 195.66895,47.817871 199.04395,41.817871 199.04395,36.567871 C 199.04395,31.317871 194.54395,23.442871 194.54395,23.442871 L 203.91895,24.942871 L 213.16895,15.692871 L 209.62793,63.151367 L 202.29395,205.48486 C 202.29395,205.48486 196.29395,298.98486 106.79395,298.98486 C 17.293945,298.98486 13.293945,205.48486 13.293945,205.48486 L 4.2939453,63.817871 L 1.1689453,15.442871 z "
   style="fill:none;stroke:#000000;stroke-width:2"
   id="path1331" />
		</g>
		<path
   d="M 4.2939453,63.817871 C 4.2939453,63.817871 54.626953,50.151367 104.29395,50.151367 C 153.96094,50.151367 209.62793,63.151367 209.62793,63.151367"
   style="fill:none;stroke:#000000;stroke-width:2"
   id="path1333" />
		<path
   d="M 4.7407227,70.853516 C 4.7407227,70.853516 51.960938,56.818359 106.29395,56.818359 C 160.62695,56.818359 209.23438,70.79834 209.23438,70.79834"
   style="fill:none;stroke:#000000;stroke-width:4"
   id="path1335" />
		<g
   id="g1337">
			<g
   id="g1339">
				<path
   d="M 61.464356,227.99658 C 61.411133,227.60889 61.353516,227.19385 61.353516,227.19385 C 61.353516,227.19385 58.918945,228.00537 56.275879,228.00537 C 55.341309,228.00537 53.017578,227.93799 51.904297,226.88721 C 49.868164,224.96436 49.159668,221.49951 49.159668,221.49951 C 49.159668,221.49951 47.207031,229.73389 56.072266,229.73389 C 62.138184,229.73389 61.555664,228.65381 61.555664,228.65381 C 61.555664,228.65381 61.511231,228.33545 61.464356,227.99658 z "
   style="fill:#ff3000"
   id="path1341" />
			</g>
			<path
   d="M 35.52832,240.50537 L 44.546875,241.06885 L 65.402832,254.59717 L 55.820313,261.92432 C 55.820313,261.92432 41.165527,257.05029 41.728516,268.32373 L 60.694824,268.65576 L 90.20166,261.92432 L 90.20166,258.54248 C 90.20166,258.54248 98.093262,257.97803 99.785156,257.97803 C 101.47412,257.97803 127.40234,245.57861 127.40234,245.57861 L 129.6582,246.14307 L 127.40234,261.92432 L 118.94824,261.36182 C 116.62793,262.44385 115.89941,264.91943 115.56641,266.99756 L 135.8584,266.99756 C 135.8584,266.99756 136.4209,260.79736 138.1123,257.97803 C 139.80273,255.16064 144.87695,248.95947 144.87695,248.95947 C 144.87695,248.95947 150.5127,256.85205 163.47559,260.79736 C 154.15625,261.15967 156.15039,266.99756 156.15039,266.99756 L 171.93164,267.56006 C 171.93164,267.56006 173.05762,255.16064 172.49414,255.16064 C 171.93164,255.16064 170.7041,251.34814 164.60352,253.46924 C 164.66992,249.62256 162.87891,236.46143 157.83984,235.99756 C 160.75879,233.14502 164.50488,231.15576 163.47559,223.03271 C 160.6582,212.32373 147.69434,214.57861 147.69434,214.57861 L 115.56641,223.59619 C 115.56641,223.59619 103.16699,226.97803 101.47412,223.59619 C 99.785156,220.21436 104.29395,214.01514 104.29395,214.01514 C 104.29395,214.01514 91.893555,217.39697 94.147461,225.2876 C 96.40332,233.17822 112.18359,229.79639 112.18359,229.79639 L 144.87695,220.21436 C 144.87695,220.21436 159.5293,217.96045 158.40332,226.41455 C 157.27734,234.86963 153.89355,232.05127 153.89355,232.05127 C 153.89355,232.05127 151.07715,229.23193 145.44043,229.79639 C 139.80273,230.36182 94.147461,239.37842 90.20166,234.86963 C 91.03125,227.7749 82.312012,218.52393 82.312012,218.52393 L 85.693359,214.01514 L 77.23877,216.26904 C 77.23877,216.26904 68.220215,212.32373 54.692871,220.77881 C 53.899414,224.85596 54.692871,226.41455 54.692871,226.41455 C 54.692871,226.41455 61.45752,223.03271 61.45752,228.66943 C 61.45752,234.30518 56.947266,230.36182 56.947266,230.36182 L 56.947266,235.99756 C 56.947266,235.99756 65.402832,234.86963 65.402832,233.7417 C 65.402832,232.61572 64.07666,238.71533 64.07666,238.71533 L 52.438965,238.25146 C 52.438965,238.25146 39.474121,226.97803 35.52832,240.50537 z "
   id="path552_3_" />
			<g
   id="g1344">
				<path
   d="M 68.140137,218.56689 L 64.616211,221.27881 C 64.616211,221.27881 61.755371,218.91846 65.090332,218.43213 C 68.34375,217.95752 68.140137,218.56689 68.140137,218.56689 z "
   style="fill:#f9dd16"
   id="path1346" />
			</g>
		</g>
		<g
   id="g1348">
			<g
   id="g1350">
				<path
   d="M 53.418945,159.16162 C 53.353027,158.68506 53.282227,158.17529 53.282227,158.17529 C 53.282227,158.17529 50.289062,159.17334 47.039062,159.17334 C 45.890137,159.17334 43.032715,159.09033 41.664062,157.79834 C 39.160644,155.43408 38.289062,151.17334 38.289062,151.17334 C 38.289062,151.17334 35.888183,161.29834 46.789062,161.29834 C 54.247558,161.29834 53.530762,159.97021 53.530762,159.97021 C 53.530762,159.97021 53.476563,159.57861 53.418945,159.16162 z "
   style="fill:#ff3000"
   id="path1352" />
			</g>
			<path
   d="M 21.52832,174.54248 L 32.617676,175.23584 L 58.261719,191.86963 L 46.479004,200.87842 C 46.479004,200.87842 28.459961,194.88623 29.151856,208.74756 L 52.472656,209.15576 L 88.753906,200.87842 L 88.753906,196.72021 C 88.753906,196.72021 98.457031,196.02686 100.53711,196.02686 C 102.61426,196.02686 134.49512,180.78076 134.49512,180.78076 L 137.26855,181.47412 L 134.49512,200.87842 L 124.09961,200.18701 C 121.24707,201.51807 120.35059,204.56201 119.94141,207.1167 L 144.89258,207.1167 C 144.89258,207.1167 145.58398,199.49365 147.66406,196.02686 C 149.74219,192.56201 155.98145,184.93799 155.98145,184.93799 C 155.98145,184.93799 162.91113,194.64209 178.84961,199.49365 C 167.3916,199.93896 169.84277,207.1167 169.84277,207.1167 L 189.24707,207.80811 C 189.24707,207.80811 190.63184,192.56201 189.93945,192.56201 C 189.24707,192.56201 187.73828,187.87451 180.23633,190.48291 C 180.31836,185.75342 178.11621,169.56982 171.91992,168.99951 C 175.50879,165.49268 180.11523,163.04639 178.84961,153.05811 C 175.38574,139.89111 159.44531,142.66357 159.44531,142.66357 L 119.94141,153.75146 C 119.94141,153.75146 104.69531,157.90967 102.61426,153.75146 C 100.53711,149.59326 106.08105,141.97021 106.08105,141.97021 C 106.08105,141.97021 90.833985,146.12842 93.605469,155.83154 C 96.378906,165.53271 115.78223,161.37451 115.78223,161.37451 L 155.98145,149.59326 C 155.98145,149.59326 173.99805,146.82178 172.61328,157.21728 C 171.22852,167.61279 167.06836,164.14795 167.06836,164.14795 C 167.06836,164.14795 163.60547,160.68115 156.67383,161.37451 C 149.74219,162.06982 93.605469,173.15674 88.753906,167.61279 C 89.773926,158.88916 79.052734,147.51514 79.052734,147.51514 L 83.210449,141.97021 L 72.814941,144.7417 C 72.814941,144.7417 61.725586,139.89111 45.092773,150.28662 C 44.117188,155.30029 45.092773,157.21729 45.092773,157.21729 C 45.092773,157.21729 53.410645,153.05811 53.410645,159.98975 C 53.410645,166.91943 47.864746,162.06982 47.864746,162.06982 L 47.864746,168.99951 C 47.864746,168.99951 58.261719,167.61279 58.261719,166.22607 C 58.261719,164.84131 56.630859,172.34131 56.630859,172.34131 L 42.321289,171.771 C 42.321289,171.771 26.379883,157.90967 21.52832,174.54248 z "
   id="path552_2_" />
			<g
   id="g1355">
				<path
   d="M 61.627441,147.56787 L 57.293945,150.90186 C 57.293945,150.90186 53.776856,147.99951 57.877441,147.40186 C 61.877441,146.81787 61.627441,147.56787 61.627441,147.56787 z "
   style="fill:#f9dd16"
   id="path1357" />
			</g>
		</g>
		<g
   id="g1359">
			<g
   id="g1361">
				<path
   d="M 52.418945,86.661621 C 52.353027,86.185547 52.282227,85.675293 52.282227,85.675293 C 52.282227,85.675293 49.289062,86.672852 46.039062,86.672852 C 44.890137,86.672852 42.032715,86.590332 40.664062,85.297852 C 38.160644,82.934082 37.289062,78.672852 37.289062,78.672852 C 37.289062,78.672852 34.888183,88.797852 45.789062,88.797852 C 53.247558,88.797852 52.530762,87.469727 52.530762,87.469727 C 52.530762,87.469727 52.476563,87.078613 52.418945,86.661621 z "
   style="fill:#ff3000"
   id="path1363" />
			</g>
			<path
   d="M 20.52832,102.04248 L 31.617676,102.73584 L 57.261719,119.36963 L 45.479004,128.37891 C 45.479004,128.37891 27.459961,122.38623 28.151856,136.24756 L 51.472656,136.65576 L 87.753906,128.37891 L 87.753906,124.2207 C 87.753906,124.2207 97.457031,123.52734 99.53711,123.52734 C 101.61426,123.52734 133.49512,108.28027 133.49512,108.28027 L 136.26855,108.97363 L 133.49512,128.37891 L 123.09961,127.68652 C 120.24707,129.01807 119.35059,132.06201 118.94141,134.6167 L 143.89258,134.6167 C 143.89258,134.6167 144.58398,126.99316 146.66406,123.52734 C 148.74219,120.06152 154.98145,112.43799 154.98145,112.43799 C 154.98145,112.43799 161.91113,122.1416 177.84961,126.99316 C 166.3916,127.43945 168.84277,134.6167 168.84277,134.6167 L 188.24707,135.30811 C 188.24707,135.30811 189.63184,120.06152 188.93945,120.06152 C 188.24707,120.06152 186.73828,115.37402 179.23633,117.98291 C 179.31836,113.25391 177.11621,97.069824 170.91992,96.499512 C 174.50879,92.992676 179.11523,90.546387 177.84961,80.558106 C 174.38574,67.391113 158.44531,70.163086 158.44531,70.163086 L 118.94141,81.251465 C 118.94141,81.251465 103.69531,85.409668 101.61426,81.251465 C 99.53711,77.09375 105.08105,69.470215 105.08105,69.470215 C 105.08105,69.470215 89.833984,73.62793 92.605469,83.331543 C 95.378906,93.033203 114.78223,88.875 114.78223,88.875 L 154.98145,77.09375 C 154.98145,77.09375 172.99805,74.322266 171.61328,84.717285 C 170.22852,95.113281 166.06836,91.647461 166.06836,91.647461 C 166.06836,91.647461 162.60547,88.181641 155.67383,88.875 C 148.74219,89.569336 92.605469,100.65674 87.753906,95.113281 C 88.773926,86.38916 78.052734,75.014649 78.052734,75.014649 L 82.210449,69.470215 L 71.814941,72.242188 C 71.814941,72.242188 60.725586,67.391114 44.092773,77.786621 C 43.117187,82.800293 44.092773,84.717285 44.092773,84.717285 C 44.092773,84.717285 52.410644,80.558106 52.410644,87.489746 C 52.410644,94.419434 46.864746,89.569336 46.864746,89.569336 L 46.864746,96.499512 C 46.864746,96.499512 57.261719,95.113281 57.261719,93.726563 C 57.261719,92.340821 55.630859,99.841309 55.630859,99.841309 L 41.321289,99.270996 C 41.321289,99.270996 25.379883,85.409668 20.52832,102.04248 z "
   id="path552" />
			<g
   id="g1366">
				<path
   d="M 60.627441,75.067871 L 56.293945,78.401367 C 56.293945,78.401367 52.776856,75.499512 56.877441,74.901367 C 60.877441,74.317871 60.627441,75.067871 60.627441,75.067871 z "
   style="fill:#f9dd16"
   id="path1368" />
			</g>
		</g>
		<polyline
   fill="none"
   stroke="#000000"
   stroke-width="2"
   points="211.9003906,32.6928711 200.5439453,54.9428711     168.5439453,49.1928711 160.1689453,17.9428711 150.1689453,46.5678711 116.1689453,44.8178711 107.4189453,15.4428711     98.0439453,44.3178711 63.7939453,46.8178711 53.4189453,18.1928711 44.6689453,49.1928711 11.5439453,55.3178711     2.4189453,32.6928711 "
   id="polyline1370"
   style="fill:none;stroke:#000000;stroke-width:2" />
	</g>
</svg>